n°;valid;K_operon;K_operon:alg;K_operon:free;K_operon:alg:free;K_operon:ca;K_operon:Inoperon_env;K_operon:ca:free;K_operon:Inoperon_env:free;K_operon:alg:ca;K_operon:Inoperon_env:alg;K_operon:Inoperon_env:ca;K_operon:alg:ca:free;K_operon:Inoperon_env:alg:free;K_operon:Inoperon_env:ca:free;K_operon:Inoperon_env:alg:ca;K_operon:Inoperon_env:alg:ca:free;K_mucuB;K_mucuB:prod;Error explanation
;;0..2;0..2;0..2;0..2;0..2;0..2;0..2;0..2;0..2;0..2;0..2;0..2;0..2;0..2;0..2;0..2;0..1;0..1;;
1;OK;0;0;0;0;-;-;-;-;-;-;-;-;-;-;-;-;0;0;
2;OK;1;0;0;0;-;-;-;-;-;-;-;-;-;-;-;-;0;0;
3;OK;2;0;0;0;-;-;-;-;-;-;-;-;-;-;-;-;0;0;
4;OK;0;1;0;0;-;-;-;-;-;-;-;-;-;-;-;-;0;0;
5;OK;1;1;0;0;-;-;-;-;-;-;-;-;-;-;-;-;0;0;
6;OK;2;1;0;0;-;-;-;-;-;-;-;-;-;-;-;-;0;0;
7;OK;0;2;0;0;-;-;-;-;-;-;-;-;-;-;-;-;0;0;
8;OK;0;0;1;0;-;-;-;-;-;-;-;-;-;-;-;-;0;0;
9;OK;1;0;1;0;-;-;-;-;-;-;-;-;-;-;-;-;0;0;
10;OK;2;0;1;0;-;-;-;-;-;-;-;-;-;-;-;-;0;0;
11;OK;0;1;1;0;-;-;-;-;-;-;-;-;-;-;-;-;0;0;
12;OK;1;1;1;0;-;-;-;-;-;-;-;-;-;-;-;-;0;0;
13;OK;2;1;1;0;-;-;-;-;-;-;-;-;-;-;-;-;0;0;
14;OK;0;2;1;0;-;-;-;-;-;-;-;-;-;-;-;-;0;0;
15;OK;0;0;2;0;-;-;-;-;-;-;-;-;-;-;-;-;0;0;
16;OK;1;0;2;0;-;-;-;-;-;-;-;-;-;-;-;-;0;0;
17;OK;2;0;2;0;-;-;-;-;-;-;-;-;-;-;-;-;0;0;
18;OK;0;1;2;0;-;-;-;-;-;-;-;-;-;-;-;-;0;0;
19;OK;1;1;2;0;-;-;-;-;-;-;-;-;-;-;-;-;0;0;
20;OK;2;1;2;0;-;-;-;-;-;-;-;-;-;-;-;-;0;0;
21;OK;0;2;2;0;-;-;-;-;-;-;-;-;-;-;-;-;0;0;
22;OK;0;0;0;1;-;-;-;-;-;-;-;-;-;-;-;-;0;0;
23;OK;1;0;0;1;-;-;-;-;-;-;-;-;-;-;-;-;0;0;
24;OK;2;0;0;1;-;-;-;-;-;-;-;-;-;-;-;-;0;0;
25;OK;0;1;0;1;-;-;-;-;-;-;-;-;-;-;-;-;0;0;
26;OK;1;1;0;1;-;-;-;-;-;-;-;-;-;-;-;-;0;0;
27;OK;2;1;0;1;-;-;-;-;-;-;-;-;-;-;-;-;0;0;
28;OK;0;2;0;1;-;-;-;-;-;-;-;-;-;-;-;-;0;0;
29;OK;0;0;1;1;-;-;-;-;-;-;-;-;-;-;-;-;0;0;
30;OK;1;0;1;1;-;-;-;-;-;-;-;-;-;-;-;-;0;0;
31;OK;2;0;1;1;-;-;-;-;-;-;-;-;-;-;-;-;0;0;
32;OK;0;1;1;1;-;-;-;-;-;-;-;-;-;-;-;-;0;0;
33;OK;1;1;1;1;-;-;-;-;-;-;-;-;-;-;-;-;0;0;
34;OK;2;1;1;1;-;-;-;-;-;-;-;-;-;-;-;-;0;0;
35;OK;0;2;1;1;-;-;-;-;-;-;-;-;-;-;-;-;0;0;
36;OK;0;0;2;1;-;-;-;-;-;-;-;-;-;-;-;-;0;0;
37;OK;1;0;2;1;-;-;-;-;-;-;-;-;-;-;-;-;0;0;
38;OK;2;0;2;1;-;-;-;-;-;-;-;-;-;-;-;-;0;0;
39;OK;0;1;2;1;-;-;-;-;-;-;-;-;-;-;-;-;0;0;
40;OK;1;1;2;1;-;-;-;-;-;-;-;-;-;-;-;-;0;0;
41;OK;2;1;2;1;-;-;-;-;-;-;-;-;-;-;-;-;0;0;
42;OK;0;2;2;1;-;-;-;-;-;-;-;-;-;-;-;-;0;0;
43;OK;0;0;0;2;-;-;-;-;-;-;-;-;-;-;-;-;0;0;
44;OK;0;1;0;2;-;-;-;-;-;-;-;-;-;-;-;-;0;0;
45;OK;0;2;0;2;-;-;-;-;-;-;-;-;-;-;-;-;0;0;
46;OK;0;0;0;0;-;-;-;-;-;-;-;-;-;-;-;-;1;0;
47;OK;1;0;0;0;-;-;-;-;-;-;-;-;-;-;-;-;1;0;
48;OK;2;0;0;0;-;-;-;-;-;-;-;-;-;-;-;-;1;0;
49;OK;0;1;0;0;-;-;-;-;-;-;-;-;-;-;-;-;1;0;
50;OK;1;1;0;0;-;-;-;-;-;-;-;-;-;-;-;-;1;0;
51;OK;2;1;0;0;-;-;-;-;-;-;-;-;-;-;-;-;1;0;
52;OK;0;2;0;0;-;-;-;-;-;-;-;-;-;-;-;-;1;0;
53;OK;0;0;1;0;-;-;-;-;-;-;-;-;-;-;-;-;1;0;
54;OK;1;0;1;0;-;-;-;-;-;-;-;-;-;-;-;-;1;0;
55;OK;2;0;1;0;-;-;-;-;-;-;-;-;-;-;-;-;1;0;
56;OK;0;1;1;0;-;-;-;-;-;-;-;-;-;-;-;-;1;0;
57;OK;1;1;1;0;-;-;-;-;-;-;-;-;-;-;-;-;1;0;
58;OK;2;1;1;0;-;-;-;-;-;-;-;-;-;-;-;-;1;0;
59;OK;0;2;1;0;-;-;-;-;-;-;-;-;-;-;-;-;1;0;
60;OK;0;0;2;0;-;-;-;-;-;-;-;-;-;-;-;-;1;0;
61;OK;1;0;2;0;-;-;-;-;-;-;-;-;-;-;-;-;1;0;
62;OK;2;0;2;0;-;-;-;-;-;-;-;-;-;-;-;-;1;0;
63;OK;0;1;2;0;-;-;-;-;-;-;-;-;-;-;-;-;1;0;
64;OK;1;1;2;0;-;-;-;-;-;-;-;-;-;-;-;-;1;0;
65;OK;2;1;2;0;-;-;-;-;-;-;-;-;-;-;-;-;1;0;
66;OK;0;2;2;0;-;-;-;-;-;-;-;-;-;-;-;-;1;0;
67;OK;0;0;0;1;-;-;-;-;-;-;-;-;-;-;-;-;1;0;
68;OK;1;0;0;1;-;-;-;-;-;-;-;-;-;-;-;-;1;0;
69;OK;2;0;0;1;-;-;-;-;-;-;-;-;-;-;-;-;1;0;
70;OK;0;1;0;1;-;-;-;-;-;-;-;-;-;-;-;-;1;0;
71;OK;1;1;0;1;-;-;-;-;-;-;-;-;-;-;-;-;1;0;
72;OK;2;1;0;1;-;-;-;-;-;-;-;-;-;-;-;-;1;0;
73;OK;0;2;0;1;-;-;-;-;-;-;-;-;-;-;-;-;1;0;
74;OK;0;0;1;1;-;-;-;-;-;-;-;-;-;-;-;-;1;0;
75;OK;1;0;1;1;-;-;-;-;-;-;-;-;-;-;-;-;1;0;
76;OK;2;0;1;1;-;-;-;-;-;-;-;-;-;-;-;-;1;0;
77;OK;0;1;1;1;-;-;-;-;-;-;-;-;-;-;-;-;1;0;
78;OK;1;1;1;1;-;-;-;-;-;-;-;-;-;-;-;-;1;0;
79;OK;2;1;1;1;-;-;-;-;-;-;-;-;-;-;-;-;1;0;
80;OK;0;2;1;1;-;-;-;-;-;-;-;-;-;-;-;-;1;0;
81;OK;0;0;2;1;-;-;-;-;-;-;-;-;-;-;-;-;1;0;
82;OK;1;0;2;1;-;-;-;-;-;-;-;-;-;-;-;-;1;0;
83;OK;2;0;2;1;-;-;-;-;-;-;-;-;-;-;-;-;1;0;
84;OK;0;1;2;1;-;-;-;-;-;-;-;-;-;-;-;-;1;0;
85;OK;1;1;2;1;-;-;-;-;-;-;-;-;-;-;-;-;1;0;
86;OK;2;1;2;1;-;-;-;-;-;-;-;-;-;-;-;-;1;0;
87;OK;0;2;2;1;-;-;-;-;-;-;-;-;-;-;-;-;1;0;
88;OK;0;0;0;2;-;-;-;-;-;-;-;-;-;-;-;-;1;0;
89;OK;0;1;0;2;-;-;-;-;-;-;-;-;-;-;-;-;1;0;
90;OK;0;2;0;2;-;-;-;-;-;-;-;-;-;-;-;-;1;0;
91;OK;0;0;0;0;-;-;-;-;-;-;-;-;-;-;-;-;0;1;
92;OK;1;0;0;0;-;-;-;-;-;-;-;-;-;-;-;-;0;1;
93;OK;2;0;0;0;-;-;-;-;-;-;-;-;-;-;-;-;0;1;
94;OK;0;1;0;0;-;-;-;-;-;-;-;-;-;-;-;-;0;1;
95;OK;1;1;0;0;-;-;-;-;-;-;-;-;-;-;-;-;0;1;
96;OK;2;1;0;0;-;-;-;-;-;-;-;-;-;-;-;-;0;1;
97;OK;0;2;0;0;-;-;-;-;-;-;-;-;-;-;-;-;0;1;
98;OK;0;0;1;0;-;-;-;-;-;-;-;-;-;-;-;-;0;1;
99;OK;1;0;1;0;-;-;-;-;-;-;-;-;-;-;-;-;0;1;
100;OK;2;0;1;0;-;-;-;-;-;-;-;-;-;-;-;-;0;1;
101;OK;0;1;1;0;-;-;-;-;-;-;-;-;-;-;-;-;0;1;
102;OK;1;1;1;0;-;-;-;-;-;-;-;-;-;-;-;-;0;1;
103;OK;2;1;1;0;-;-;-;-;-;-;-;-;-;-;-;-;0;1;
104;OK;0;0;2;0;-;-;-;-;-;-;-;-;-;-;-;-;0;1;
105;OK;1;0;2;0;-;-;-;-;-;-;-;-;-;-;-;-;0;1;
106;OK;2;0;2;0;-;-;-;-;-;-;-;-;-;-;-;-;0;1;
107;OK;0;1;2;0;-;-;-;-;-;-;-;-;-;-;-;-;0;1;
108;OK;1;1;2;0;-;-;-;-;-;-;-;-;-;-;-;-;0;1;
109;OK;2;1;2;0;-;-;-;-;-;-;-;-;-;-;-;-;0;1;
110;OK;0;0;0;1;-;-;-;-;-;-;-;-;-;-;-;-;0;1;
111;OK;1;0;0;1;-;-;-;-;-;-;-;-;-;-;-;-;0;1;
112;OK;2;0;0;1;-;-;-;-;-;-;-;-;-;-;-;-;0;1;
113;OK;0;1;0;1;-;-;-;-;-;-;-;-;-;-;-;-;0;1;
114;OK;1;1;0;1;-;-;-;-;-;-;-;-;-;-;-;-;0;1;
115;OK;2;1;0;1;-;-;-;-;-;-;-;-;-;-;-;-;0;1;
116;OK;0;2;0;1;-;-;-;-;-;-;-;-;-;-;-;-;0;1;
117;OK;0;0;1;1;-;-;-;-;-;-;-;-;-;-;-;-;0;1;
118;OK;1;0;1;1;-;-;-;-;-;-;-;-;-;-;-;-;0;1;
119;OK;2;0;1;1;-;-;-;-;-;-;-;-;-;-;-;-;0;1;
120;OK;0;1;1;1;-;-;-;-;-;-;-;-;-;-;-;-;0;1;
121;OK;1;1;1;1;-;-;-;-;-;-;-;-;-;-;-;-;0;1;
122;OK;2;1;1;1;-;-;-;-;-;-;-;-;-;-;-;-;0;1;
123;OK;0;0;2;1;-;-;-;-;-;-;-;-;-;-;-;-;0;1;
124;OK;1;0;2;1;-;-;-;-;-;-;-;-;-;-;-;-;0;1;
125;OK;2;0;2;1;-;-;-;-;-;-;-;-;-;-;-;-;0;1;
126;OK;0;1;2;1;-;-;-;-;-;-;-;-;-;-;-;-;0;1;
127;OK;1;1;2;1;-;-;-;-;-;-;-;-;-;-;-;-;0;1;
128;OK;2;1;2;1;-;-;-;-;-;-;-;-;-;-;-;-;0;1;
129;OK;0;0;0;2;-;-;-;-;-;-;-;-;-;-;-;-;0;1;
130;OK;1;0;0;2;-;-;-;-;-;-;-;-;-;-;-;-;0;1;
131;OK;2;0;0;2;-;-;-;-;-;-;-;-;-;-;-;-;0;1;
132;OK;0;1;0;2;-;-;-;-;-;-;-;-;-;-;-;-;0;1;
133;OK;1;1;0;2;-;-;-;-;-;-;-;-;-;-;-;-;0;1;
134;OK;2;1;0;2;-;-;-;-;-;-;-;-;-;-;-;-;0;1;
135;OK;0;2;0;2;-;-;-;-;-;-;-;-;-;-;-;-;0;1;
136;OK;0;0;0;0;-;-;-;-;-;-;-;-;-;-;-;-;1;1;
137;OK;1;0;0;0;-;-;-;-;-;-;-;-;-;-;-;-;1;1;
138;OK;2;0;0;0;-;-;-;-;-;-;-;-;-;-;-;-;1;1;
139;OK;0;1;0;0;-;-;-;-;-;-;-;-;-;-;-;-;1;1;
140;OK;1;1;0;0;-;-;-;-;-;-;-;-;-;-;-;-;1;1;
141;OK;2;1;0;0;-;-;-;-;-;-;-;-;-;-;-;-;1;1;
142;OK;0;2;0;0;-;-;-;-;-;-;-;-;-;-;-;-;1;1;
143;OK;0;0;1;0;-;-;-;-;-;-;-;-;-;-;-;-;1;1;
144;OK;1;0;1;0;-;-;-;-;-;-;-;-;-;-;-;-;1;1;
145;OK;2;0;1;0;-;-;-;-;-;-;-;-;-;-;-;-;1;1;
146;OK;0;1;1;0;-;-;-;-;-;-;-;-;-;-;-;-;1;1;
147;OK;1;1;1;0;-;-;-;-;-;-;-;-;-;-;-;-;1;1;
148;OK;2;1;1;0;-;-;-;-;-;-;-;-;-;-;-;-;1;1;
149;OK;0;0;2;0;-;-;-;-;-;-;-;-;-;-;-;-;1;1;
150;OK;1;0;2;0;-;-;-;-;-;-;-;-;-;-;-;-;1;1;
151;OK;2;0;2;0;-;-;-;-;-;-;-;-;-;-;-;-;1;1;
152;OK;0;1;2;0;-;-;-;-;-;-;-;-;-;-;-;-;1;1;
153;OK;1;1;2;0;-;-;-;-;-;-;-;-;-;-;-;-;1;1;
154;OK;2;1;2;0;-;-;-;-;-;-;-;-;-;-;-;-;1;1;
155;OK;0;0;0;1;-;-;-;-;-;-;-;-;-;-;-;-;1;1;
156;OK;1;0;0;1;-;-;-;-;-;-;-;-;-;-;-;-;1;1;
157;OK;2;0;0;1;-;-;-;-;-;-;-;-;-;-;-;-;1;1;
158;OK;0;1;0;1;-;-;-;-;-;-;-;-;-;-;-;-;1;1;
159;OK;1;1;0;1;-;-;-;-;-;-;-;-;-;-;-;-;1;1;
160;OK;2;1;0;1;-;-;-;-;-;-;-;-;-;-;-;-;1;1;
161;OK;0;2;0;1;-;-;-;-;-;-;-;-;-;-;-;-;1;1;
162;OK;0;0;1;1;-;-;-;-;-;-;-;-;-;-;-;-;1;1;
163;OK;1;0;1;1;-;-;-;-;-;-;-;-;-;-;-;-;1;1;
164;OK;2;0;1;1;-;-;-;-;-;-;-;-;-;-;-;-;1;1;
165;OK;0;1;1;1;-;-;-;-;-;-;-;-;-;-;-;-;1;1;
166;OK;1;1;1;1;-;-;-;-;-;-;-;-;-;-;-;-;1;1;
167;OK;2;1;1;1;-;-;-;-;-;-;-;-;-;-;-;-;1;1;
168;OK;0;0;2;1;-;-;-;-;-;-;-;-;-;-;-;-;1;1;
169;OK;1;0;2;1;-;-;-;-;-;-;-;-;-;-;-;-;1;1;
170;OK;2;0;2;1;-;-;-;-;-;-;-;-;-;-;-;-;1;1;
171;OK;0;1;2;1;-;-;-;-;-;-;-;-;-;-;-;-;1;1;
172;OK;1;1;2;1;-;-;-;-;-;-;-;-;-;-;-;-;1;1;
173;OK;2;1;2;1;-;-;-;-;-;-;-;-;-;-;-;-;1;1;
174;OK;0;0;0;2;-;-;-;-;-;-;-;-;-;-;-;-;1;1;
175;OK;1;0;0;2;-;-;-;-;-;-;-;-;-;-;-;-;1;1;
176;OK;2;0;0;2;-;-;-;-;-;-;-;-;-;-;-;-;1;1;
177;OK;0;1;0;2;-;-;-;-;-;-;-;-;-;-;-;-;1;1;
178;OK;1;1;0;2;-;-;-;-;-;-;-;-;-;-;-;-;1;1;
179;OK;2;1;0;2;-;-;-;-;-;-;-;-;-;-;-;-;1;1;
180;OK;0;2;0;2;-;-;-;-;-;-;-;-;-;-;-;-;1;1;
181;KO;1;2;0;0;-;-;-;-;-;-;-;-;-;-;-;-;0;0;"[FC121]"
182;KO;2;2;0;0;-;-;-;-;-;-;-;-;-;-;-;-;0;0;"[FC121]"
183;KO;1;2;1;0;-;-;-;-;-;-;-;-;-;-;-;-;0;0;"[FC121]"
184;KO;2;2;1;0;-;-;-;-;-;-;-;-;-;-;-;-;0;0;"[FC121]"
185;KO;1;2;2;0;-;-;-;-;-;-;-;-;-;-;-;-;0;0;"[FC121]"
186;KO;2;2;2;0;-;-;-;-;-;-;-;-;-;-;-;-;0;0;"[FC121]"
187;KO;1;2;0;1;-;-;-;-;-;-;-;-;-;-;-;-;0;0;"[FC121]"
188;KO;2;2;0;1;-;-;-;-;-;-;-;-;-;-;-;-;0;0;"[FC121]"
189;KO;1;2;1;1;-;-;-;-;-;-;-;-;-;-;-;-;0;0;"[FC121]"
190;KO;2;2;1;1;-;-;-;-;-;-;-;-;-;-;-;-;0;0;"[FC121]"
191;KO;1;2;2;1;-;-;-;-;-;-;-;-;-;-;-;-;0;0;"[FC121]"
192;KO;2;2;2;1;-;-;-;-;-;-;-;-;-;-;-;-;0;0;"[FC121]"
193;KO;1;0;0;2;-;-;-;-;-;-;-;-;-;-;-;-;0;0;"[FC121]"
194;KO;2;0;0;2;-;-;-;-;-;-;-;-;-;-;-;-;0;0;"[FC121]"
195;KO;1;1;0;2;-;-;-;-;-;-;-;-;-;-;-;-;0;0;"[FC121]"
196;KO;2;1;0;2;-;-;-;-;-;-;-;-;-;-;-;-;0;0;"[FC121]"
197;KO;1;2;0;2;-;-;-;-;-;-;-;-;-;-;-;-;0;0;"[FC121]"
198;KO;2;2;0;2;-;-;-;-;-;-;-;-;-;-;-;-;0;0;"[FC121]"
199;KO;0;0;1;2;-;-;-;-;-;-;-;-;-;-;-;-;0;0;"[FC121]"
200;KO;1;0;1;2;-;-;-;-;-;-;-;-;-;-;-;-;0;0;"[FC121]"
201;KO;2;0;1;2;-;-;-;-;-;-;-;-;-;-;-;-;0;0;"[FC121]"
202;KO;0;1;1;2;-;-;-;-;-;-;-;-;-;-;-;-;0;0;"[FC121]"
203;KO;1;1;1;2;-;-;-;-;-;-;-;-;-;-;-;-;0;0;"[FC121]"
204;KO;2;1;1;2;-;-;-;-;-;-;-;-;-;-;-;-;0;0;"[FC121]"
205;KO;0;2;1;2;-;-;-;-;-;-;-;-;-;-;-;-;0;0;"[FC121]"
206;KO;1;2;1;2;-;-;-;-;-;-;-;-;-;-;-;-;0;0;"[FC121]"
207;KO;2;2;1;2;-;-;-;-;-;-;-;-;-;-;-;-;0;0;"[FC121]"
208;KO;0;0;2;2;-;-;-;-;-;-;-;-;-;-;-;-;0;0;"[FC121]"
209;KO;1;0;2;2;-;-;-;-;-;-;-;-;-;-;-;-;0;0;"[FC121]"
210;KO;2;0;2;2;-;-;-;-;-;-;-;-;-;-;-;-;0;0;"[FC121]"
211;KO;0;1;2;2;-;-;-;-;-;-;-;-;-;-;-;-;0;0;"[FC121]"
212;KO;1;1;2;2;-;-;-;-;-;-;-;-;-;-;-;-;0;0;"[FC121]"
213;KO;2;1;2;2;-;-;-;-;-;-;-;-;-;-;-;-;0;0;"[FC121]"
214;KO;0;2;2;2;-;-;-;-;-;-;-;-;-;-;-;-;0;0;"[FC121]"
215;KO;1;2;2;2;-;-;-;-;-;-;-;-;-;-;-;-;0;0;"[FC121]"
216;KO;2;2;2;2;-;-;-;-;-;-;-;-;-;-;-;-;0;0;"[FC121]"
217;KO;1;2;0;0;-;-;-;-;-;-;-;-;-;-;-;-;1;0;"[FC121]"
218;KO;2;2;0;0;-;-;-;-;-;-;-;-;-;-;-;-;1;0;"[FC121]"
219;KO;1;2;1;0;-;-;-;-;-;-;-;-;-;-;-;-;1;0;"[FC121]"
220;KO;2;2;1;0;-;-;-;-;-;-;-;-;-;-;-;-;1;0;"[FC121]"
221;KO;1;2;2;0;-;-;-;-;-;-;-;-;-;-;-;-;1;0;"[FC121]"
222;KO;2;2;2;0;-;-;-;-;-;-;-;-;-;-;-;-;1;0;"[FC121]"
223;KO;1;2;0;1;-;-;-;-;-;-;-;-;-;-;-;-;1;0;"[FC121]"
224;KO;2;2;0;1;-;-;-;-;-;-;-;-;-;-;-;-;1;0;"[FC121]"
225;KO;1;2;1;1;-;-;-;-;-;-;-;-;-;-;-;-;1;0;"[FC121]"
226;KO;2;2;1;1;-;-;-;-;-;-;-;-;-;-;-;-;1;0;"[FC121]"
227;KO;1;2;2;1;-;-;-;-;-;-;-;-;-;-;-;-;1;0;"[FC121]"
228;KO;2;2;2;1;-;-;-;-;-;-;-;-;-;-;-;-;1;0;"[FC121]"
229;KO;1;0;0;2;-;-;-;-;-;-;-;-;-;-;-;-;1;0;"[FC121]"
230;KO;2;0;0;2;-;-;-;-;-;-;-;-;-;-;-;-;1;0;"[FC121]"
231;KO;1;1;0;2;-;-;-;-;-;-;-;-;-;-;-;-;1;0;"[FC121]"
232;KO;2;1;0;2;-;-;-;-;-;-;-;-;-;-;-;-;1;0;"[FC121]"
233;KO;1;2;0;2;-;-;-;-;-;-;-;-;-;-;-;-;1;0;"[FC121]"
234;KO;2;2;0;2;-;-;-;-;-;-;-;-;-;-;-;-;1;0;"[FC121]"
235;KO;0;0;1;2;-;-;-;-;-;-;-;-;-;-;-;-;1;0;"[FC121]"
236;KO;1;0;1;2;-;-;-;-;-;-;-;-;-;-;-;-;1;0;"[FC121]"
237;KO;2;0;1;2;-;-;-;-;-;-;-;-;-;-;-;-;1;0;"[FC121]"
238;KO;0;1;1;2;-;-;-;-;-;-;-;-;-;-;-;-;1;0;"[FC121]"
239;KO;1;1;1;2;-;-;-;-;-;-;-;-;-;-;-;-;1;0;"[FC121]"
240;KO;2;1;1;2;-;-;-;-;-;-;-;-;-;-;-;-;1;0;"[FC121]"
241;KO;0;2;1;2;-;-;-;-;-;-;-;-;-;-;-;-;1;0;"[FC121]"
242;KO;1;2;1;2;-;-;-;-;-;-;-;-;-;-;-;-;1;0;"[FC121]"
243;KO;2;2;1;2;-;-;-;-;-;-;-;-;-;-;-;-;1;0;"[FC121]"
244;KO;0;0;2;2;-;-;-;-;-;-;-;-;-;-;-;-;1;0;"[FC121]"
245;KO;1;0;2;2;-;-;-;-;-;-;-;-;-;-;-;-;1;0;"[FC121]"
246;KO;2;0;2;2;-;-;-;-;-;-;-;-;-;-;-;-;1;0;"[FC121]"
247;KO;0;1;2;2;-;-;-;-;-;-;-;-;-;-;-;-;1;0;"[FC121]"
248;KO;1;1;2;2;-;-;-;-;-;-;-;-;-;-;-;-;1;0;"[FC121]"
249;KO;2;1;2;2;-;-;-;-;-;-;-;-;-;-;-;-;1;0;"[FC121]"
250;KO;0;2;2;2;-;-;-;-;-;-;-;-;-;-;-;-;1;0;"[FC121]"
251;KO;1;2;2;2;-;-;-;-;-;-;-;-;-;-;-;-;1;0;"[FC121]"
252;KO;2;2;2;2;-;-;-;-;-;-;-;-;-;-;-;-;1;0;"[FC121]"
253;KO;1;2;0;0;-;-;-;-;-;-;-;-;-;-;-;-;0;1;"[FC121]"
254;KO;2;2;0;0;-;-;-;-;-;-;-;-;-;-;-;-;0;1;"[FC121]"
255;KO;0;2;1;0;-;-;-;-;-;-;-;-;-;-;-;-;0;1;"[FC121]"
256;KO;1;2;1;0;-;-;-;-;-;-;-;-;-;-;-;-;0;1;"[FC121]"
257;KO;2;2;1;0;-;-;-;-;-;-;-;-;-;-;-;-;0;1;"[FC121]"
258;KO;0;2;2;0;-;-;-;-;-;-;-;-;-;-;-;-;0;1;"[FC121]"
259;KO;1;2;2;0;-;-;-;-;-;-;-;-;-;-;-;-;0;1;"[FC121]"
260;KO;2;2;2;0;-;-;-;-;-;-;-;-;-;-;-;-;0;1;"[FC121]"
261;KO;1;2;0;1;-;-;-;-;-;-;-;-;-;-;-;-;0;1;"[FC121]"
262;KO;2;2;0;1;-;-;-;-;-;-;-;-;-;-;-;-;0;1;"[FC121]"
263;KO;0;2;1;1;-;-;-;-;-;-;-;-;-;-;-;-;0;1;"[FC121]"
264;KO;1;2;1;1;-;-;-;-;-;-;-;-;-;-;-;-;0;1;"[FC121]"
265;KO;2;2;1;1;-;-;-;-;-;-;-;-;-;-;-;-;0;1;"[FC121]"
266;KO;0;2;2;1;-;-;-;-;-;-;-;-;-;-;-;-;0;1;"[FC121]"
267;KO;1;2;2;1;-;-;-;-;-;-;-;-;-;-;-;-;0;1;"[FC121]"
268;KO;2;2;2;1;-;-;-;-;-;-;-;-;-;-;-;-;0;1;"[FC121]"
269;KO;1;2;0;2;-;-;-;-;-;-;-;-;-;-;-;-;0;1;"[FC121]"
270;KO;2;2;0;2;-;-;-;-;-;-;-;-;-;-;-;-;0;1;"[FC121]"
271;KO;0;0;1;2;-;-;-;-;-;-;-;-;-;-;-;-;0;1;"[FC121]"
272;KO;1;0;1;2;-;-;-;-;-;-;-;-;-;-;-;-;0;1;"[FC121]"
273;KO;2;0;1;2;-;-;-;-;-;-;-;-;-;-;-;-;0;1;"[FC121]"
274;KO;0;1;1;2;-;-;-;-;-;-;-;-;-;-;-;-;0;1;"[FC121]"
275;KO;1;1;1;2;-;-;-;-;-;-;-;-;-;-;-;-;0;1;"[FC121]"
276;KO;2;1;1;2;-;-;-;-;-;-;-;-;-;-;-;-;0;1;"[FC121]"
277;KO;0;2;1;2;-;-;-;-;-;-;-;-;-;-;-;-;0;1;"[FC121]"
278;KO;1;2;1;2;-;-;-;-;-;-;-;-;-;-;-;-;0;1;"[FC121]"
279;KO;2;2;1;2;-;-;-;-;-;-;-;-;-;-;-;-;0;1;"[FC121]"
280;KO;0;0;2;2;-;-;-;-;-;-;-;-;-;-;-;-;0;1;"[FC121]"
281;KO;1;0;2;2;-;-;-;-;-;-;-;-;-;-;-;-;0;1;"[FC121]"
282;KO;2;0;2;2;-;-;-;-;-;-;-;-;-;-;-;-;0;1;"[FC121]"
283;KO;0;1;2;2;-;-;-;-;-;-;-;-;-;-;-;-;0;1;"[FC121]"
284;KO;1;1;2;2;-;-;-;-;-;-;-;-;-;-;-;-;0;1;"[FC121]"
285;KO;2;1;2;2;-;-;-;-;-;-;-;-;-;-;-;-;0;1;"[FC121]"
286;KO;0;2;2;2;-;-;-;-;-;-;-;-;-;-;-;-;0;1;"[FC121]"
287;KO;1;2;2;2;-;-;-;-;-;-;-;-;-;-;-;-;0;1;"[FC121]"
288;KO;2;2;2;2;-;-;-;-;-;-;-;-;-;-;-;-;0;1;"[FC121]"
289;KO;1;2;0;0;-;-;-;-;-;-;-;-;-;-;-;-;1;1;"[FC121]"
290;KO;2;2;0;0;-;-;-;-;-;-;-;-;-;-;-;-;1;1;"[FC121]"
291;KO;0;2;1;0;-;-;-;-;-;-;-;-;-;-;-;-;1;1;"[FC121]"
292;KO;1;2;1;0;-;-;-;-;-;-;-;-;-;-;-;-;1;1;"[FC121]"
293;KO;2;2;1;0;-;-;-;-;-;-;-;-;-;-;-;-;1;1;"[FC121]"
294;KO;0;2;2;0;-;-;-;-;-;-;-;-;-;-;-;-;1;1;"[FC121]"
295;KO;1;2;2;0;-;-;-;-;-;-;-;-;-;-;-;-;1;1;"[FC121]"
296;KO;2;2;2;0;-;-;-;-;-;-;-;-;-;-;-;-;1;1;"[FC121]"
297;KO;1;2;0;1;-;-;-;-;-;-;-;-;-;-;-;-;1;1;"[FC121]"
298;KO;2;2;0;1;-;-;-;-;-;-;-;-;-;-;-;-;1;1;"[FC121]"
299;KO;0;2;1;1;-;-;-;-;-;-;-;-;-;-;-;-;1;1;"[FC121]"
300;KO;1;2;1;1;-;-;-;-;-;-;-;-;-;-;-;-;1;1;"[FC121]"
301;KO;2;2;1;1;-;-;-;-;-;-;-;-;-;-;-;-;1;1;"[FC121]"
302;KO;0;2;2;1;-;-;-;-;-;-;-;-;-;-;-;-;1;1;"[FC121]"
303;KO;1;2;2;1;-;-;-;-;-;-;-;-;-;-;-;-;1;1;"[FC121]"
304;KO;2;2;2;1;-;-;-;-;-;-;-;-;-;-;-;-;1;1;"[FC121]"
305;KO;1;2;0;2;-;-;-;-;-;-;-;-;-;-;-;-;1;1;"[FC121]"
306;KO;2;2;0;2;-;-;-;-;-;-;-;-;-;-;-;-;1;1;"[FC121]"
307;KO;0;0;1;2;-;-;-;-;-;-;-;-;-;-;-;-;1;1;"[FC121]"
308;KO;1;0;1;2;-;-;-;-;-;-;-;-;-;-;-;-;1;1;"[FC121]"
309;KO;2;0;1;2;-;-;-;-;-;-;-;-;-;-;-;-;1;1;"[FC121]"
310;KO;0;1;1;2;-;-;-;-;-;-;-;-;-;-;-;-;1;1;"[FC121]"
311;KO;1;1;1;2;-;-;-;-;-;-;-;-;-;-;-;-;1;1;"[FC121]"
312;KO;2;1;1;2;-;-;-;-;-;-;-;-;-;-;-;-;1;1;"[FC121]"
313;KO;0;2;1;2;-;-;-;-;-;-;-;-;-;-;-;-;1;1;"[FC121]"
314;KO;1;2;1;2;-;-;-;-;-;-;-;-;-;-;-;-;1;1;"[FC121]"
315;KO;2;2;1;2;-;-;-;-;-;-;-;-;-;-;-;-;1;1;"[FC121]"
316;KO;0;0;2;2;-;-;-;-;-;-;-;-;-;-;-;-;1;1;"[FC121]"
317;KO;1;0;2;2;-;-;-;-;-;-;-;-;-;-;-;-;1;1;"[FC121]"
318;KO;2;0;2;2;-;-;-;-;-;-;-;-;-;-;-;-;1;1;"[FC121]"
319;KO;0;1;2;2;-;-;-;-;-;-;-;-;-;-;-;-;1;1;"[FC121]"
320;KO;1;1;2;2;-;-;-;-;-;-;-;-;-;-;-;-;1;1;"[FC121]"
321;KO;2;1;2;2;-;-;-;-;-;-;-;-;-;-;-;-;1;1;"[FC121]"
322;KO;0;2;2;2;-;-;-;-;-;-;-;-;-;-;-;-;1;1;"[FC121]"
323;KO;1;2;2;2;-;-;-;-;-;-;-;-;-;-;-;-;1;1;"[FC121]"
324;KO;2;2;2;2;-;-;-;-;-;-;-;-;-;-;-;-;1;1;"[FC121]"
