n°;valid;K_operon:ca;K_operon:alg:ca;K_operon:ca:free;K_operon:alg:ca:free;K_operon;K_operon:free;K_operon:alg;K_operon:Inoperon_env;K_operon:alg:free;K_operon:Inoperon_env:free;K_operon:Inoperon_env:alg;K_operon:Inoperon_env:ca;K_operon:Inoperon_env:alg:free;K_operon:Inoperon_env:ca:free;K_operon:Inoperon_env:alg:ca;K_operon:Inoperon_env:alg:ca:free;K_mucuB;K_mucuB:prod;Error explanation
;;0..2;0..2;0..2;0..2;0..2;0..2;0..2;0..2;0..2;0..2;0..2;0..2;0..2;0..2;0..2;0..2;0..1;0..1;;
1;OK;0;0;1;2;-;-;-;-;-;-;-;-;-;-;-;-;0;0;
2;OK;1;0;1;2;-;-;-;-;-;-;-;-;-;-;-;-;0;0;
3;OK;2;0;1;2;-;-;-;-;-;-;-;-;-;-;-;-;0;0;
4;OK;0;1;1;2;-;-;-;-;-;-;-;-;-;-;-;-;0;0;
5;OK;1;1;1;2;-;-;-;-;-;-;-;-;-;-;-;-;0;0;
6;OK;2;1;1;2;-;-;-;-;-;-;-;-;-;-;-;-;0;0;
7;OK;0;2;1;2;-;-;-;-;-;-;-;-;-;-;-;-;0;0;
8;OK;1;2;1;2;-;-;-;-;-;-;-;-;-;-;-;-;0;0;
9;OK;2;2;1;2;-;-;-;-;-;-;-;-;-;-;-;-;0;0;
10;OK;0;0;2;2;-;-;-;-;-;-;-;-;-;-;-;-;0;0;
11;OK;1;0;2;2;-;-;-;-;-;-;-;-;-;-;-;-;0;0;
12;OK;2;0;2;2;-;-;-;-;-;-;-;-;-;-;-;-;0;0;
13;OK;0;1;2;2;-;-;-;-;-;-;-;-;-;-;-;-;0;0;
14;OK;1;1;2;2;-;-;-;-;-;-;-;-;-;-;-;-;0;0;
15;OK;2;1;2;2;-;-;-;-;-;-;-;-;-;-;-;-;0;0;
16;OK;0;2;2;2;-;-;-;-;-;-;-;-;-;-;-;-;0;0;
17;OK;1;2;2;2;-;-;-;-;-;-;-;-;-;-;-;-;0;0;
18;OK;2;2;2;2;-;-;-;-;-;-;-;-;-;-;-;-;0;0;
19;OK;1;0;0;2;-;-;-;-;-;-;-;-;-;-;-;-;1;0;
20;OK;2;0;0;2;-;-;-;-;-;-;-;-;-;-;-;-;1;0;
21;OK;1;1;0;2;-;-;-;-;-;-;-;-;-;-;-;-;1;0;
22;OK;2;1;0;2;-;-;-;-;-;-;-;-;-;-;-;-;1;0;
23;OK;1;2;0;2;-;-;-;-;-;-;-;-;-;-;-;-;1;0;
24;OK;2;2;0;2;-;-;-;-;-;-;-;-;-;-;-;-;1;0;
25;OK;1;0;1;2;-;-;-;-;-;-;-;-;-;-;-;-;1;0;
26;OK;2;0;1;2;-;-;-;-;-;-;-;-;-;-;-;-;1;0;
27;OK;1;1;1;2;-;-;-;-;-;-;-;-;-;-;-;-;1;0;
28;OK;2;1;1;2;-;-;-;-;-;-;-;-;-;-;-;-;1;0;
29;OK;1;2;1;2;-;-;-;-;-;-;-;-;-;-;-;-;1;0;
30;OK;2;2;1;2;-;-;-;-;-;-;-;-;-;-;-;-;1;0;
31;OK;1;0;2;2;-;-;-;-;-;-;-;-;-;-;-;-;1;0;
32;OK;2;0;2;2;-;-;-;-;-;-;-;-;-;-;-;-;1;0;
33;OK;1;1;2;2;-;-;-;-;-;-;-;-;-;-;-;-;1;0;
34;OK;2;1;2;2;-;-;-;-;-;-;-;-;-;-;-;-;1;0;
35;OK;1;2;2;2;-;-;-;-;-;-;-;-;-;-;-;-;1;0;
36;OK;2;2;2;2;-;-;-;-;-;-;-;-;-;-;-;-;1;0;
37;OK;0;2;1;0;-;-;-;-;-;-;-;-;-;-;-;-;0;1;
38;OK;1;2;1;0;-;-;-;-;-;-;-;-;-;-;-;-;0;1;
39;OK;2;2;1;0;-;-;-;-;-;-;-;-;-;-;-;-;0;1;
40;OK;0;2;2;0;-;-;-;-;-;-;-;-;-;-;-;-;0;1;
41;OK;1;2;2;0;-;-;-;-;-;-;-;-;-;-;-;-;0;1;
42;OK;2;2;2;0;-;-;-;-;-;-;-;-;-;-;-;-;0;1;
43;OK;0;2;1;1;-;-;-;-;-;-;-;-;-;-;-;-;0;1;
44;OK;1;2;1;1;-;-;-;-;-;-;-;-;-;-;-;-;0;1;
45;OK;2;2;1;1;-;-;-;-;-;-;-;-;-;-;-;-;0;1;
46;OK;0;2;2;1;-;-;-;-;-;-;-;-;-;-;-;-;0;1;
47;OK;1;2;2;1;-;-;-;-;-;-;-;-;-;-;-;-;0;1;
48;OK;2;2;2;1;-;-;-;-;-;-;-;-;-;-;-;-;0;1;
49;OK;0;2;1;2;-;-;-;-;-;-;-;-;-;-;-;-;0;1;
50;OK;1;2;1;2;-;-;-;-;-;-;-;-;-;-;-;-;0;1;
51;OK;2;2;1;2;-;-;-;-;-;-;-;-;-;-;-;-;0;1;
52;OK;0;2;2;2;-;-;-;-;-;-;-;-;-;-;-;-;0;1;
53;OK;1;2;2;2;-;-;-;-;-;-;-;-;-;-;-;-;0;1;
54;OK;2;2;2;2;-;-;-;-;-;-;-;-;-;-;-;-;0;1;
55;OK;1;2;0;0;-;-;-;-;-;-;-;-;-;-;-;-;1;1;
56;OK;2;2;0;0;-;-;-;-;-;-;-;-;-;-;-;-;1;1;
57;OK;1;2;1;0;-;-;-;-;-;-;-;-;-;-;-;-;1;1;
58;OK;2;2;1;0;-;-;-;-;-;-;-;-;-;-;-;-;1;1;
59;OK;1;2;2;0;-;-;-;-;-;-;-;-;-;-;-;-;1;1;
60;OK;2;2;2;0;-;-;-;-;-;-;-;-;-;-;-;-;1;1;
61;OK;1;2;0;1;-;-;-;-;-;-;-;-;-;-;-;-;1;1;
62;OK;2;2;0;1;-;-;-;-;-;-;-;-;-;-;-;-;1;1;
63;OK;1;2;1;1;-;-;-;-;-;-;-;-;-;-;-;-;1;1;
64;OK;2;2;1;1;-;-;-;-;-;-;-;-;-;-;-;-;1;1;
65;OK;1;2;2;1;-;-;-;-;-;-;-;-;-;-;-;-;1;1;
66;OK;2;2;2;1;-;-;-;-;-;-;-;-;-;-;-;-;1;1;
67;OK;1;2;0;2;-;-;-;-;-;-;-;-;-;-;-;-;1;1;
68;OK;2;2;0;2;-;-;-;-;-;-;-;-;-;-;-;-;1;1;
69;OK;1;2;1;2;-;-;-;-;-;-;-;-;-;-;-;-;1;1;
70;OK;2;2;1;2;-;-;-;-;-;-;-;-;-;-;-;-;1;1;
71;OK;1;2;2;2;-;-;-;-;-;-;-;-;-;-;-;-;1;1;
72;OK;2;2;2;2;-;-;-;-;-;-;-;-;-;-;-;-;1;1;
73;KO;0;0;0;0;-;-;-;-;-;-;-;-;-;-;-;-;0;0;"[FC321]"
74;KO;1;0;0;0;-;-;-;-;-;-;-;-;-;-;-;-;0;0;"[FC321]"
75;KO;2;0;0;0;-;-;-;-;-;-;-;-;-;-;-;-;0;0;"[FC321]"
76;KO;0;1;0;0;-;-;-;-;-;-;-;-;-;-;-;-;0;0;"[FC321]"
77;KO;1;1;0;0;-;-;-;-;-;-;-;-;-;-;-;-;0;0;"[FC321]"
78;KO;2;1;0;0;-;-;-;-;-;-;-;-;-;-;-;-;0;0;"[FC321]"
79;KO;0;2;0;0;-;-;-;-;-;-;-;-;-;-;-;-;0;0;"[FC321]"
80;KO;1;2;0;0;-;-;-;-;-;-;-;-;-;-;-;-;0;0;"[FC321]"
81;KO;2;2;0;0;-;-;-;-;-;-;-;-;-;-;-;-;0;0;"[FC321]"
82;KO;0;0;1;0;-;-;-;-;-;-;-;-;-;-;-;-;0;0;"[FC321]"
83;KO;1;0;1;0;-;-;-;-;-;-;-;-;-;-;-;-;0;0;"[FC321]"
84;KO;2;0;1;0;-;-;-;-;-;-;-;-;-;-;-;-;0;0;"[FC321]"
85;KO;0;1;1;0;-;-;-;-;-;-;-;-;-;-;-;-;0;0;"[FC321]"
86;KO;1;1;1;0;-;-;-;-;-;-;-;-;-;-;-;-;0;0;"[FC321]"
87;KO;2;1;1;0;-;-;-;-;-;-;-;-;-;-;-;-;0;0;"[FC321]"
88;KO;0;2;1;0;-;-;-;-;-;-;-;-;-;-;-;-;0;0;"[FC321]"
89;KO;1;2;1;0;-;-;-;-;-;-;-;-;-;-;-;-;0;0;"[FC321]"
90;KO;2;2;1;0;-;-;-;-;-;-;-;-;-;-;-;-;0;0;"[FC321]"
91;KO;0;0;2;0;-;-;-;-;-;-;-;-;-;-;-;-;0;0;"[FC321]"
92;KO;1;0;2;0;-;-;-;-;-;-;-;-;-;-;-;-;0;0;"[FC321]"
93;KO;2;0;2;0;-;-;-;-;-;-;-;-;-;-;-;-;0;0;"[FC321]"
94;KO;0;1;2;0;-;-;-;-;-;-;-;-;-;-;-;-;0;0;"[FC321]"
95;KO;1;1;2;0;-;-;-;-;-;-;-;-;-;-;-;-;0;0;"[FC321]"
96;KO;2;1;2;0;-;-;-;-;-;-;-;-;-;-;-;-;0;0;"[FC321]"
97;KO;0;2;2;0;-;-;-;-;-;-;-;-;-;-;-;-;0;0;"[FC321]"
98;KO;1;2;2;0;-;-;-;-;-;-;-;-;-;-;-;-;0;0;"[FC321]"
99;KO;2;2;2;0;-;-;-;-;-;-;-;-;-;-;-;-;0;0;"[FC321]"
100;KO;0;0;0;1;-;-;-;-;-;-;-;-;-;-;-;-;0;0;"[FC321]"
101;KO;1;0;0;1;-;-;-;-;-;-;-;-;-;-;-;-;0;0;"[FC321]"
102;KO;2;0;0;1;-;-;-;-;-;-;-;-;-;-;-;-;0;0;"[FC321]"
103;KO;0;1;0;1;-;-;-;-;-;-;-;-;-;-;-;-;0;0;"[FC321]"
104;KO;1;1;0;1;-;-;-;-;-;-;-;-;-;-;-;-;0;0;"[FC321]"
105;KO;2;1;0;1;-;-;-;-;-;-;-;-;-;-;-;-;0;0;"[FC321]"
106;KO;0;2;0;1;-;-;-;-;-;-;-;-;-;-;-;-;0;0;"[FC321]"
107;KO;1;2;0;1;-;-;-;-;-;-;-;-;-;-;-;-;0;0;"[FC321]"
108;KO;2;2;0;1;-;-;-;-;-;-;-;-;-;-;-;-;0;0;"[FC321]"
109;KO;0;0;1;1;-;-;-;-;-;-;-;-;-;-;-;-;0;0;"[FC321]"
110;KO;1;0;1;1;-;-;-;-;-;-;-;-;-;-;-;-;0;0;"[FC321]"
111;KO;2;0;1;1;-;-;-;-;-;-;-;-;-;-;-;-;0;0;"[FC321]"
112;KO;0;1;1;1;-;-;-;-;-;-;-;-;-;-;-;-;0;0;"[FC321]"
113;KO;1;1;1;1;-;-;-;-;-;-;-;-;-;-;-;-;0;0;"[FC321]"
114;KO;2;1;1;1;-;-;-;-;-;-;-;-;-;-;-;-;0;0;"[FC321]"
115;KO;0;2;1;1;-;-;-;-;-;-;-;-;-;-;-;-;0;0;"[FC321]"
116;KO;1;2;1;1;-;-;-;-;-;-;-;-;-;-;-;-;0;0;"[FC321]"
117;KO;2;2;1;1;-;-;-;-;-;-;-;-;-;-;-;-;0;0;"[FC321]"
118;KO;0;0;2;1;-;-;-;-;-;-;-;-;-;-;-;-;0;0;"[FC321]"
119;KO;1;0;2;1;-;-;-;-;-;-;-;-;-;-;-;-;0;0;"[FC321]"
120;KO;2;0;2;1;-;-;-;-;-;-;-;-;-;-;-;-;0;0;"[FC321]"
121;KO;0;1;2;1;-;-;-;-;-;-;-;-;-;-;-;-;0;0;"[FC321]"
122;KO;1;1;2;1;-;-;-;-;-;-;-;-;-;-;-;-;0;0;"[FC321]"
123;KO;2;1;2;1;-;-;-;-;-;-;-;-;-;-;-;-;0;0;"[FC321]"
124;KO;0;2;2;1;-;-;-;-;-;-;-;-;-;-;-;-;0;0;"[FC321]"
125;KO;1;2;2;1;-;-;-;-;-;-;-;-;-;-;-;-;0;0;"[FC321]"
126;KO;2;2;2;1;-;-;-;-;-;-;-;-;-;-;-;-;0;0;"[FC321]"
127;KO;0;0;0;2;-;-;-;-;-;-;-;-;-;-;-;-;0;0;"[FC321]"
128;KO;1;0;0;2;-;-;-;-;-;-;-;-;-;-;-;-;0;0;"[FC321]"
129;KO;2;0;0;2;-;-;-;-;-;-;-;-;-;-;-;-;0;0;"[FC321]"
130;KO;0;1;0;2;-;-;-;-;-;-;-;-;-;-;-;-;0;0;"[FC321]"
131;KO;1;1;0;2;-;-;-;-;-;-;-;-;-;-;-;-;0;0;"[FC321]"
132;KO;2;1;0;2;-;-;-;-;-;-;-;-;-;-;-;-;0;0;"[FC321]"
133;KO;0;2;0;2;-;-;-;-;-;-;-;-;-;-;-;-;0;0;"[FC321]"
134;KO;1;2;0;2;-;-;-;-;-;-;-;-;-;-;-;-;0;0;"[FC321]"
135;KO;2;2;0;2;-;-;-;-;-;-;-;-;-;-;-;-;0;0;"[FC321]"
136;KO;0;0;0;0;-;-;-;-;-;-;-;-;-;-;-;-;1;0;"[FC321]"
137;KO;1;0;0;0;-;-;-;-;-;-;-;-;-;-;-;-;1;0;"[FC321]"
138;KO;2;0;0;0;-;-;-;-;-;-;-;-;-;-;-;-;1;0;"[FC321]"
139;KO;0;1;0;0;-;-;-;-;-;-;-;-;-;-;-;-;1;0;"[FC321]"
140;KO;1;1;0;0;-;-;-;-;-;-;-;-;-;-;-;-;1;0;"[FC321]"
141;KO;2;1;0;0;-;-;-;-;-;-;-;-;-;-;-;-;1;0;"[FC321]"
142;KO;0;2;0;0;-;-;-;-;-;-;-;-;-;-;-;-;1;0;"[FC321]"
143;KO;1;2;0;0;-;-;-;-;-;-;-;-;-;-;-;-;1;0;"[FC321]"
144;KO;2;2;0;0;-;-;-;-;-;-;-;-;-;-;-;-;1;0;"[FC321]"
145;KO;0;0;1;0;-;-;-;-;-;-;-;-;-;-;-;-;1;0;"[FC321]"
146;KO;1;0;1;0;-;-;-;-;-;-;-;-;-;-;-;-;1;0;"[FC321]"
147;KO;2;0;1;0;-;-;-;-;-;-;-;-;-;-;-;-;1;0;"[FC321]"
148;KO;0;1;1;0;-;-;-;-;-;-;-;-;-;-;-;-;1;0;"[FC321]"
149;KO;1;1;1;0;-;-;-;-;-;-;-;-;-;-;-;-;1;0;"[FC321]"
150;KO;2;1;1;0;-;-;-;-;-;-;-;-;-;-;-;-;1;0;"[FC321]"
151;KO;0;2;1;0;-;-;-;-;-;-;-;-;-;-;-;-;1;0;"[FC321]"
152;KO;1;2;1;0;-;-;-;-;-;-;-;-;-;-;-;-;1;0;"[FC321]"
153;KO;2;2;1;0;-;-;-;-;-;-;-;-;-;-;-;-;1;0;"[FC321]"
154;KO;0;0;2;0;-;-;-;-;-;-;-;-;-;-;-;-;1;0;"[FC321]"
155;KO;1;0;2;0;-;-;-;-;-;-;-;-;-;-;-;-;1;0;"[FC321]"
156;KO;2;0;2;0;-;-;-;-;-;-;-;-;-;-;-;-;1;0;"[FC321]"
157;KO;0;1;2;0;-;-;-;-;-;-;-;-;-;-;-;-;1;0;"[FC321]"
158;KO;1;1;2;0;-;-;-;-;-;-;-;-;-;-;-;-;1;0;"[FC321]"
159;KO;2;1;2;0;-;-;-;-;-;-;-;-;-;-;-;-;1;0;"[FC321]"
160;KO;0;2;2;0;-;-;-;-;-;-;-;-;-;-;-;-;1;0;"[FC321]"
161;KO;1;2;2;0;-;-;-;-;-;-;-;-;-;-;-;-;1;0;"[FC321]"
162;KO;2;2;2;0;-;-;-;-;-;-;-;-;-;-;-;-;1;0;"[FC321]"
163;KO;0;0;0;1;-;-;-;-;-;-;-;-;-;-;-;-;1;0;"[FC321]"
164;KO;1;0;0;1;-;-;-;-;-;-;-;-;-;-;-;-;1;0;"[FC321]"
165;KO;2;0;0;1;-;-;-;-;-;-;-;-;-;-;-;-;1;0;"[FC321]"
166;KO;0;1;0;1;-;-;-;-;-;-;-;-;-;-;-;-;1;0;"[FC321]"
167;KO;1;1;0;1;-;-;-;-;-;-;-;-;-;-;-;-;1;0;"[FC321]"
168;KO;2;1;0;1;-;-;-;-;-;-;-;-;-;-;-;-;1;0;"[FC321]"
169;KO;0;2;0;1;-;-;-;-;-;-;-;-;-;-;-;-;1;0;"[FC321]"
170;KO;1;2;0;1;-;-;-;-;-;-;-;-;-;-;-;-;1;0;"[FC321]"
171;KO;2;2;0;1;-;-;-;-;-;-;-;-;-;-;-;-;1;0;"[FC321]"
172;KO;0;0;1;1;-;-;-;-;-;-;-;-;-;-;-;-;1;0;"[FC321]"
173;KO;1;0;1;1;-;-;-;-;-;-;-;-;-;-;-;-;1;0;"[FC321]"
174;KO;2;0;1;1;-;-;-;-;-;-;-;-;-;-;-;-;1;0;"[FC321]"
175;KO;0;1;1;1;-;-;-;-;-;-;-;-;-;-;-;-;1;0;"[FC321]"
176;KO;1;1;1;1;-;-;-;-;-;-;-;-;-;-;-;-;1;0;"[FC321]"
177;KO;2;1;1;1;-;-;-;-;-;-;-;-;-;-;-;-;1;0;"[FC321]"
178;KO;0;2;1;1;-;-;-;-;-;-;-;-;-;-;-;-;1;0;"[FC321]"
179;KO;1;2;1;1;-;-;-;-;-;-;-;-;-;-;-;-;1;0;"[FC321]"
180;KO;2;2;1;1;-;-;-;-;-;-;-;-;-;-;-;-;1;0;"[FC321]"
181;KO;0;0;2;1;-;-;-;-;-;-;-;-;-;-;-;-;1;0;"[FC321]"
182;KO;1;0;2;1;-;-;-;-;-;-;-;-;-;-;-;-;1;0;"[FC321]"
183;KO;2;0;2;1;-;-;-;-;-;-;-;-;-;-;-;-;1;0;"[FC321]"
184;KO;0;1;2;1;-;-;-;-;-;-;-;-;-;-;-;-;1;0;"[FC321]"
185;KO;1;1;2;1;-;-;-;-;-;-;-;-;-;-;-;-;1;0;"[FC321]"
186;KO;2;1;2;1;-;-;-;-;-;-;-;-;-;-;-;-;1;0;"[FC321]"
187;KO;0;2;2;1;-;-;-;-;-;-;-;-;-;-;-;-;1;0;"[FC321]"
188;KO;1;2;2;1;-;-;-;-;-;-;-;-;-;-;-;-;1;0;"[FC321]"
189;KO;2;2;2;1;-;-;-;-;-;-;-;-;-;-;-;-;1;0;"[FC321]"
190;KO;0;0;0;2;-;-;-;-;-;-;-;-;-;-;-;-;1;0;"[FC321]"
191;KO;0;1;0;2;-;-;-;-;-;-;-;-;-;-;-;-;1;0;"[FC321]"
192;KO;0;2;0;2;-;-;-;-;-;-;-;-;-;-;-;-;1;0;"[FC321]"
193;KO;0;0;1;2;-;-;-;-;-;-;-;-;-;-;-;-;1;0;"[FC321]"
194;KO;0;1;1;2;-;-;-;-;-;-;-;-;-;-;-;-;1;0;"[FC321]"
195;KO;0;2;1;2;-;-;-;-;-;-;-;-;-;-;-;-;1;0;"[FC321]"
196;KO;0;0;2;2;-;-;-;-;-;-;-;-;-;-;-;-;1;0;"[FC321]"
197;KO;0;1;2;2;-;-;-;-;-;-;-;-;-;-;-;-;1;0;"[FC321]"
198;KO;0;2;2;2;-;-;-;-;-;-;-;-;-;-;-;-;1;0;"[FC321]"
199;KO;0;0;0;0;-;-;-;-;-;-;-;-;-;-;-;-;0;1;"[FC321]"
200;KO;1;0;0;0;-;-;-;-;-;-;-;-;-;-;-;-;0;1;"[FC321]"
201;KO;2;0;0;0;-;-;-;-;-;-;-;-;-;-;-;-;0;1;"[FC321]"
202;KO;0;1;0;0;-;-;-;-;-;-;-;-;-;-;-;-;0;1;"[FC321]"
203;KO;1;1;0;0;-;-;-;-;-;-;-;-;-;-;-;-;0;1;"[FC321]"
204;KO;2;1;0;0;-;-;-;-;-;-;-;-;-;-;-;-;0;1;"[FC321]"
205;KO;0;2;0;0;-;-;-;-;-;-;-;-;-;-;-;-;0;1;"[FC321]"
206;KO;1;2;0;0;-;-;-;-;-;-;-;-;-;-;-;-;0;1;"[FC321]"
207;KO;2;2;0;0;-;-;-;-;-;-;-;-;-;-;-;-;0;1;"[FC321]"
208;KO;0;0;1;0;-;-;-;-;-;-;-;-;-;-;-;-;0;1;"[FC321]"
209;KO;1;0;1;0;-;-;-;-;-;-;-;-;-;-;-;-;0;1;"[FC321]"
210;KO;2;0;1;0;-;-;-;-;-;-;-;-;-;-;-;-;0;1;"[FC321]"
211;KO;0;1;1;0;-;-;-;-;-;-;-;-;-;-;-;-;0;1;"[FC321]"
212;KO;1;1;1;0;-;-;-;-;-;-;-;-;-;-;-;-;0;1;"[FC321]"
213;KO;2;1;1;0;-;-;-;-;-;-;-;-;-;-;-;-;0;1;"[FC321]"
214;KO;0;0;2;0;-;-;-;-;-;-;-;-;-;-;-;-;0;1;"[FC321]"
215;KO;1;0;2;0;-;-;-;-;-;-;-;-;-;-;-;-;0;1;"[FC321]"
216;KO;2;0;2;0;-;-;-;-;-;-;-;-;-;-;-;-;0;1;"[FC321]"
217;KO;0;1;2;0;-;-;-;-;-;-;-;-;-;-;-;-;0;1;"[FC321]"
218;KO;1;1;2;0;-;-;-;-;-;-;-;-;-;-;-;-;0;1;"[FC321]"
219;KO;2;1;2;0;-;-;-;-;-;-;-;-;-;-;-;-;0;1;"[FC321]"
220;KO;0;0;0;1;-;-;-;-;-;-;-;-;-;-;-;-;0;1;"[FC321]"
221;KO;1;0;0;1;-;-;-;-;-;-;-;-;-;-;-;-;0;1;"[FC321]"
222;KO;2;0;0;1;-;-;-;-;-;-;-;-;-;-;-;-;0;1;"[FC321]"
223;KO;0;1;0;1;-;-;-;-;-;-;-;-;-;-;-;-;0;1;"[FC321]"
224;KO;1;1;0;1;-;-;-;-;-;-;-;-;-;-;-;-;0;1;"[FC321]"
225;KO;2;1;0;1;-;-;-;-;-;-;-;-;-;-;-;-;0;1;"[FC321]"
226;KO;0;2;0;1;-;-;-;-;-;-;-;-;-;-;-;-;0;1;"[FC321]"
227;KO;1;2;0;1;-;-;-;-;-;-;-;-;-;-;-;-;0;1;"[FC321]"
228;KO;2;2;0;1;-;-;-;-;-;-;-;-;-;-;-;-;0;1;"[FC321]"
229;KO;0;0;1;1;-;-;-;-;-;-;-;-;-;-;-;-;0;1;"[FC321]"
230;KO;1;0;1;1;-;-;-;-;-;-;-;-;-;-;-;-;0;1;"[FC321]"
231;KO;2;0;1;1;-;-;-;-;-;-;-;-;-;-;-;-;0;1;"[FC321]"
232;KO;0;1;1;1;-;-;-;-;-;-;-;-;-;-;-;-;0;1;"[FC321]"
233;KO;1;1;1;1;-;-;-;-;-;-;-;-;-;-;-;-;0;1;"[FC321]"
234;KO;2;1;1;1;-;-;-;-;-;-;-;-;-;-;-;-;0;1;"[FC321]"
235;KO;0;0;2;1;-;-;-;-;-;-;-;-;-;-;-;-;0;1;"[FC321]"
236;KO;1;0;2;1;-;-;-;-;-;-;-;-;-;-;-;-;0;1;"[FC321]"
237;KO;2;0;2;1;-;-;-;-;-;-;-;-;-;-;-;-;0;1;"[FC321]"
238;KO;0;1;2;1;-;-;-;-;-;-;-;-;-;-;-;-;0;1;"[FC321]"
239;KO;1;1;2;1;-;-;-;-;-;-;-;-;-;-;-;-;0;1;"[FC321]"
240;KO;2;1;2;1;-;-;-;-;-;-;-;-;-;-;-;-;0;1;"[FC321]"
241;KO;0;0;0;2;-;-;-;-;-;-;-;-;-;-;-;-;0;1;"[FC321]"
242;KO;1;0;0;2;-;-;-;-;-;-;-;-;-;-;-;-;0;1;"[FC321]"
243;KO;2;0;0;2;-;-;-;-;-;-;-;-;-;-;-;-;0;1;"[FC321]"
244;KO;0;1;0;2;-;-;-;-;-;-;-;-;-;-;-;-;0;1;"[FC321]"
245;KO;1;1;0;2;-;-;-;-;-;-;-;-;-;-;-;-;0;1;"[FC321]"
246;KO;2;1;0;2;-;-;-;-;-;-;-;-;-;-;-;-;0;1;"[FC321]"
247;KO;0;2;0;2;-;-;-;-;-;-;-;-;-;-;-;-;0;1;"[FC321]"
248;KO;1;2;0;2;-;-;-;-;-;-;-;-;-;-;-;-;0;1;"[FC321]"
249;KO;2;2;0;2;-;-;-;-;-;-;-;-;-;-;-;-;0;1;"[FC321]"
250;KO;0;0;1;2;-;-;-;-;-;-;-;-;-;-;-;-;0;1;"[FC321]"
251;KO;1;0;1;2;-;-;-;-;-;-;-;-;-;-;-;-;0;1;"[FC321]"
252;KO;2;0;1;2;-;-;-;-;-;-;-;-;-;-;-;-;0;1;"[FC321]"
253;KO;0;1;1;2;-;-;-;-;-;-;-;-;-;-;-;-;0;1;"[FC321]"
254;KO;1;1;1;2;-;-;-;-;-;-;-;-;-;-;-;-;0;1;"[FC321]"
255;KO;2;1;1;2;-;-;-;-;-;-;-;-;-;-;-;-;0;1;"[FC321]"
256;KO;0;0;2;2;-;-;-;-;-;-;-;-;-;-;-;-;0;1;"[FC321]"
257;KO;1;0;2;2;-;-;-;-;-;-;-;-;-;-;-;-;0;1;"[FC321]"
258;KO;2;0;2;2;-;-;-;-;-;-;-;-;-;-;-;-;0;1;"[FC321]"
259;KO;0;1;2;2;-;-;-;-;-;-;-;-;-;-;-;-;0;1;"[FC321]"
260;KO;1;1;2;2;-;-;-;-;-;-;-;-;-;-;-;-;0;1;"[FC321]"
261;KO;2;1;2;2;-;-;-;-;-;-;-;-;-;-;-;-;0;1;"[FC321]"
262;KO;0;0;0;0;-;-;-;-;-;-;-;-;-;-;-;-;1;1;"[FC321]"
263;KO;1;0;0;0;-;-;-;-;-;-;-;-;-;-;-;-;1;1;"[FC321]"
264;KO;2;0;0;0;-;-;-;-;-;-;-;-;-;-;-;-;1;1;"[FC321]"
265;KO;0;1;0;0;-;-;-;-;-;-;-;-;-;-;-;-;1;1;"[FC321]"
266;KO;1;1;0;0;-;-;-;-;-;-;-;-;-;-;-;-;1;1;"[FC321]"
267;KO;2;1;0;0;-;-;-;-;-;-;-;-;-;-;-;-;1;1;"[FC321]"
268;KO;0;2;0;0;-;-;-;-;-;-;-;-;-;-;-;-;1;1;"[FC321]"
269;KO;0;0;1;0;-;-;-;-;-;-;-;-;-;-;-;-;1;1;"[FC321]"
270;KO;1;0;1;0;-;-;-;-;-;-;-;-;-;-;-;-;1;1;"[FC321]"
271;KO;2;0;1;0;-;-;-;-;-;-;-;-;-;-;-;-;1;1;"[FC321]"
272;KO;0;1;1;0;-;-;-;-;-;-;-;-;-;-;-;-;1;1;"[FC321]"
273;KO;1;1;1;0;-;-;-;-;-;-;-;-;-;-;-;-;1;1;"[FC321]"
274;KO;2;1;1;0;-;-;-;-;-;-;-;-;-;-;-;-;1;1;"[FC321]"
275;KO;0;2;1;0;-;-;-;-;-;-;-;-;-;-;-;-;1;1;"[FC321]"
276;KO;0;0;2;0;-;-;-;-;-;-;-;-;-;-;-;-;1;1;"[FC321]"
277;KO;1;0;2;0;-;-;-;-;-;-;-;-;-;-;-;-;1;1;"[FC321]"
278;KO;2;0;2;0;-;-;-;-;-;-;-;-;-;-;-;-;1;1;"[FC321]"
279;KO;0;1;2;0;-;-;-;-;-;-;-;-;-;-;-;-;1;1;"[FC321]"
280;KO;1;1;2;0;-;-;-;-;-;-;-;-;-;-;-;-;1;1;"[FC321]"
281;KO;2;1;2;0;-;-;-;-;-;-;-;-;-;-;-;-;1;1;"[FC321]"
282;KO;0;2;2;0;-;-;-;-;-;-;-;-;-;-;-;-;1;1;"[FC321]"
283;KO;0;0;0;1;-;-;-;-;-;-;-;-;-;-;-;-;1;1;"[FC321]"
284;KO;1;0;0;1;-;-;-;-;-;-;-;-;-;-;-;-;1;1;"[FC321]"
285;KO;2;0;0;1;-;-;-;-;-;-;-;-;-;-;-;-;1;1;"[FC321]"
286;KO;0;1;0;1;-;-;-;-;-;-;-;-;-;-;-;-;1;1;"[FC321]"
287;KO;1;1;0;1;-;-;-;-;-;-;-;-;-;-;-;-;1;1;"[FC321]"
288;KO;2;1;0;1;-;-;-;-;-;-;-;-;-;-;-;-;1;1;"[FC321]"
289;KO;0;2;0;1;-;-;-;-;-;-;-;-;-;-;-;-;1;1;"[FC321]"
290;KO;0;0;1;1;-;-;-;-;-;-;-;-;-;-;-;-;1;1;"[FC321]"
291;KO;1;0;1;1;-;-;-;-;-;-;-;-;-;-;-;-;1;1;"[FC321]"
292;KO;2;0;1;1;-;-;-;-;-;-;-;-;-;-;-;-;1;1;"[FC321]"
293;KO;0;1;1;1;-;-;-;-;-;-;-;-;-;-;-;-;1;1;"[FC321]"
294;KO;1;1;1;1;-;-;-;-;-;-;-;-;-;-;-;-;1;1;"[FC321]"
295;KO;2;1;1;1;-;-;-;-;-;-;-;-;-;-;-;-;1;1;"[FC321]"
296;KO;0;2;1;1;-;-;-;-;-;-;-;-;-;-;-;-;1;1;"[FC321]"
297;KO;0;0;2;1;-;-;-;-;-;-;-;-;-;-;-;-;1;1;"[FC321]"
298;KO;1;0;2;1;-;-;-;-;-;-;-;-;-;-;-;-;1;1;"[FC321]"
299;KO;2;0;2;1;-;-;-;-;-;-;-;-;-;-;-;-;1;1;"[FC321]"
300;KO;0;1;2;1;-;-;-;-;-;-;-;-;-;-;-;-;1;1;"[FC321]"
301;KO;1;1;2;1;-;-;-;-;-;-;-;-;-;-;-;-;1;1;"[FC321]"
302;KO;2;1;2;1;-;-;-;-;-;-;-;-;-;-;-;-;1;1;"[FC321]"
303;KO;0;2;2;1;-;-;-;-;-;-;-;-;-;-;-;-;1;1;"[FC321]"
304;KO;0;0;0;2;-;-;-;-;-;-;-;-;-;-;-;-;1;1;"[FC321]"
305;KO;1;0;0;2;-;-;-;-;-;-;-;-;-;-;-;-;1;1;"[FC321]"
306;KO;2;0;0;2;-;-;-;-;-;-;-;-;-;-;-;-;1;1;"[FC321]"
307;KO;0;1;0;2;-;-;-;-;-;-;-;-;-;-;-;-;1;1;"[FC321]"
308;KO;1;1;0;2;-;-;-;-;-;-;-;-;-;-;-;-;1;1;"[FC321]"
309;KO;2;1;0;2;-;-;-;-;-;-;-;-;-;-;-;-;1;1;"[FC321]"
310;KO;0;2;0;2;-;-;-;-;-;-;-;-;-;-;-;-;1;1;"[FC321]"
311;KO;0;0;1;2;-;-;-;-;-;-;-;-;-;-;-;-;1;1;"[FC321]"
312;KO;1;0;1;2;-;-;-;-;-;-;-;-;-;-;-;-;1;1;"[FC321]"
313;KO;2;0;1;2;-;-;-;-;-;-;-;-;-;-;-;-;1;1;"[FC321]"
314;KO;0;1;1;2;-;-;-;-;-;-;-;-;-;-;-;-;1;1;"[FC321]"
315;KO;1;1;1;2;-;-;-;-;-;-;-;-;-;-;-;-;1;1;"[FC321]"
316;KO;2;1;1;2;-;-;-;-;-;-;-;-;-;-;-;-;1;1;"[FC321]"
317;KO;0;2;1;2;-;-;-;-;-;-;-;-;-;-;-;-;1;1;"[FC321]"
318;KO;0;0;2;2;-;-;-;-;-;-;-;-;-;-;-;-;1;1;"[FC321]"
319;KO;1;0;2;2;-;-;-;-;-;-;-;-;-;-;-;-;1;1;"[FC321]"
320;KO;2;0;2;2;-;-;-;-;-;-;-;-;-;-;-;-;1;1;"[FC321]"
321;KO;0;1;2;2;-;-;-;-;-;-;-;-;-;-;-;-;1;1;"[FC321]"
322;KO;1;1;2;2;-;-;-;-;-;-;-;-;-;-;-;-;1;1;"[FC321]"
323;KO;2;1;2;2;-;-;-;-;-;-;-;-;-;-;-;-;1;1;"[FC321]"
324;KO;0;2;2;2;-;-;-;-;-;-;-;-;-;-;-;-;1;1;"[FC321]"
