n;valid;K_ATP:PHOXa;K_ATP:PHOXa:glyc1;K_ATP:glyc1:glyc2;K_ATP:glyc1:noLBPa;K_ATP:PHOXa:noLBPa;K_ATP:PHOXa:nonLBPa;K_ATP:glyc1:glyc2:nonLBPa;K_ATP:PHOXa:noLBPa:nonLBPa;K_ATP:glyc1:noLBPa:nonLBPa;K_ATP:PHOXa:glyc1:noLBPa;K_ATP:PHOXa:glyc1:nonLBPa;K_ATP:PHOXa:glyc1:glyc2;K_ATP:glyc1:glyc2:noLBPa;K_ATP:glyc1:glyc2:noLBPa:nonLBPa;K_ATP:PHOXa:glyc1:glyc2:noLBPa;K_ATP:PHOXa:glyc1:noLBPa:nonLBPa;K_ATP:PHOXa:glyc1:glyc2:nonLBPa;K_ATP:PHOXa:glyc1:glyc2:noLBPa:nonLBPa;K_O2;K_O2:PHOXo;K_O2:exO2o;K_O2:PHOXo:exO2o;K_GLYC:glc1:glc2;K_GLYC:COF:glc1:glc2;K_GLYC:glc1:glc2:noGR;K_GLYC:COF:glc1:glc2:noGR;K_GLYC;K_GLYC:COF;K_GLYC:noGR;K_GLYC:glc1;K_GLYC:COF:noGR;K_GLYC:COF:glc1;K_GLYC:glc1:noGR;K_GLYC:COF:glc1:noGR;K_nLBP:AAS;K_nLBP:PPP;K_nLBP:AAS:PPP;K_LBP:LS:noBOX;K_NCD:aa1:aa2;K_NCD:KREBSd:aa1:aa2;K_NCD;K_NCD:KREBSd;K_NCD:aa1;K_NCD:KREBSd:aa1;K_FERM:EP;K_NADH:KREBSn:PHOXn;K_NADH:FERMn:GLYCf:PHOXn;K_NADH:KREBSn:PHOXn:noAAS;K_NADH:FERMn:GLYCf:KREBSn;K_NADH:FERMn:KREBSn:PHOXn;K_NADH:GLYCf:KREBSn:PHOXn;K_NADH:FERMn:GLYCf:KREBSn:noAAS;K_NADH:FERMn:GLYCf:KREBSn:PHOXn;K_NADH:FERMn:GLYCf:PHOXn:noAAS;K_NADH:GLYCf:KREBSn:PHOXn:noAAS;K_NADH:FERMn:KREBSn:PHOXn:noAAS;K_NADH:FERMn:GLYCf:KREBSn:PHOXn:noAAS;K_KREBS:AnO;K_KREBS:BOX;K_KREBS:AnO:SAT;K_PHOX:PC;
;;1..1;1..1;1..1;2..2;2..2;1..1;1..1;2..2;2..2;2..2;1..1;1..1;2..2;2..2;2..2;2..2;2..2;2..2;0..1;0..1;0..1;0..1;0..2;0..2;0..2;0..2;0..2;0..2;0..2;0..2;0..2;0..2;0..2;0..2;1..1;1..1;1..1;1..1;0..2;0..2;0..2;0..2;0..2;0..2;1..1;1..1;0..1;1..1;0..1;1..1;1..1;1..1;1..1;1..1;1..1;1..1;1..1;1..1;1..1;2..2;1..1;
0;OK;1;1;1;2;2;1;1;2;2;2;1;1;2;2;2;2;2;2;0;0;1;1;0;0;0;2;0;0;0;0;0;0;0;1;1;1;1;1;0;2;0;0;0;1;1;1;0..1;1;0..1;1;1;1;1;1;1;1;1;1;1;2;1;
1;OK;1;1;1;2;2;1;1;2;2;2;1;1;2;2;2;2;2;2;0;0;1;1;0;0;0;2;0;0;0;0;0;0;0;1;1;1;1;1;0;2;0;0;0;2;1;1;0..1;1;0..1;1;1;1;1;1;1;1;1;1;1;2;1;
2;OK;1;1;1;2;2;1;1;2;2;2;1;1;2;2;2;2;2;2;0;0;1;1;0;0;0;2;0;0;0;0;0;0;0;1;1;1;1;1;0;2;0;0;1;1;1;1;0..1;1;0..1;1;1;1;1;1;1;1;1;1;1;2;1;
3;OK;1;1;1;2;2;1;1;2;2;2;1;1;2;2;2;2;2;2;0;0;1;1;0;0;0;2;0;0;0;0;0;0;0;1;1;1;1;1;0;2;0;0;1;2;1;1;0..1;1;0..1;1;1;1;1;1;1;1;1;1;1;2;1;
4;OK;1;1;1;2;2;1;1;2;2;2;1;1;2;2;2;2;2;2;0;0;1;1;0;0;0;2;0;0;0;0;0;0;0;1;1;1;1;1;0;2;0;0;2;2;1;1;0..1;1;0..1;1;1;1;1;1;1;1;1;1;1;2;1;
5;OK;1;1;1;2;2;1;1;2;2;2;1;1;2;2;2;2;2;2;0;0;1;1;0;0;0;2;0;0;0;0;0;0;0;1;1;1;1;1;1;2;0;0;0;1;1;1;0..1;1;0..1;1;1;1;1;1;1;1;1;1;1;2;1;
6;OK;1;1;1;2;2;1;1;2;2;2;1;1;2;2;2;2;2;2;0;0;1;1;0;0;0;2;0;0;0;0;0;0;0;1;1;1;1;1;1;2;0;0;0;2;1;1;0..1;1;0..1;1;1;1;1;1;1;1;1;1;1;2;1;
7;OK;1;1;1;2;2;1;1;2;2;2;1;1;2;2;2;2;2;2;0;0;1;1;0;0;0;2;0;0;0;0;0;0;0;1;1;1;1;1;1;2;0;0;1;1;1;1;0..1;1;0..1;1;1;1;1;1;1;1;1;1;1;2;1;
8;OK;1;1;1;2;2;1;1;2;2;2;1;1;2;2;2;2;2;2;0;0;1;1;0;0;0;2;0;0;0;0;0;0;0;1;1;1;1;1;1;2;0;0;1;2;1;1;0..1;1;0..1;1;1;1;1;1;1;1;1;1;1;2;1;
9;OK;1;1;1;2;2;1;1;2;2;2;1;1;2;2;2;2;2;2;0;0;1;1;0;0;0;2;0;0;0;0;0;0;0;1;1;1;1;1;1;2;0;0;2;2;1;1;0..1;1;0..1;1;1;1;1;1;1;1;1;1;1;2;1;
10;OK;1;1;1;2;2;1;1;2;2;2;1;1;2;2;2;2;2;2;0;0;1;1;0;0;0;2;0;0;0;0;0;0;0;1;1;1;1;1;2;2;0;0;0;1;1;1;0..1;1;0..1;1;1;1;1;1;1;1;1;1;1;2;1;
11;OK;1;1;1;2;2;1;1;2;2;2;1;1;2;2;2;2;2;2;0;0;1;1;0;0;0;2;0;0;0;0;0;0;0;1;1;1;1;1;2;2;0;0;0;2;1;1;0..1;1;0..1;1;1;1;1;1;1;1;1;1;1;2;1;
12;OK;1;1;1;2;2;1;1;2;2;2;1;1;2;2;2;2;2;2;0;0;1;1;0;0;0;2;0;0;0;0;0;0;0;1;1;1;1;1;2;2;0;0;1;1;1;1;0..1;1;0..1;1;1;1;1;1;1;1;1;1;1;2;1;
13;OK;1;1;1;2;2;1;1;2;2;2;1;1;2;2;2;2;2;2;0;0;1;1;0;0;0;2;0;0;0;0;0;0;0;1;1;1;1;1;2;2;0;0;1;2;1;1;0..1;1;0..1;1;1;1;1;1;1;1;1;1;1;2;1;
14;OK;1;1;1;2;2;1;1;2;2;2;1;1;2;2;2;2;2;2;0;0;1;1;0;0;0;2;0;0;0;0;0;0;0;1;1;1;1;1;2;2;0;0;2;2;1;1;0..1;1;0..1;1;1;1;1;1;1;1;1;1;1;2;1;
15;OK;1;1;1;2;2;1;1;2;2;2;1;1;2;2;2;2;2;2;0;0;1;1;0;0;0;2;0;0;0;0;0;1;0;1;1;1;1;1;0;2;0;0;0;1;1;1;0..1;1;0..1;1;1;1;1;1;1;1;1;1;1;2;1;
16;OK;1;1;1;2;2;1;1;2;2;2;1;1;2;2;2;2;2;2;0;0;1;1;0;0;0;2;0;0;0;0;0;1;0;1;1;1;1;1;0;2;0;0;0;2;1;1;0..1;1;0..1;1;1;1;1;1;1;1;1;1;1;2;1;
17;OK;1;1;1;2;2;1;1;2;2;2;1;1;2;2;2;2;2;2;0;0;1;1;0;0;0;2;0;0;0;0;0;1;0;1;1;1;1;1;0;2;0;0;1;1;1;1;0..1;1;0..1;1;1;1;1;1;1;1;1;1;1;2;1;
18;OK;1;1;1;2;2;1;1;2;2;2;1;1;2;2;2;2;2;2;0;0;1;1;0;0;0;2;0;0;0;0;0;1;0;1;1;1;1;1;0;2;0;0;1;2;1;1;0..1;1;0..1;1;1;1;1;1;1;1;1;1;1;2;1;
19;OK;1;1;1;2;2;1;1;2;2;2;1;1;2;2;2;2;2;2;0;0;1;1;0;0;0;2;0;0;0;0;0;1;0;1;1;1;1;1;0;2;0;0;2;2;1;1;0..1;1;0..1;1;1;1;1;1;1;1;1;1;1;2;1;
20;OK;1;1;1;2;2;1;1;2;2;2;1;1;2;2;2;2;2;2;0;0;1;1;0;0;0;2;0;0;0;0;0;1;0;1;1;1;1;1;1;2;0;0;0;1;1;1;0..1;1;0..1;1;1;1;1;1;1;1;1;1;1;2;1;
21;OK;1;1;1;2;2;1;1;2;2;2;1;1;2;2;2;2;2;2;0;0;1;1;0;0;0;2;0;0;0;0;0;1;0;1;1;1;1;1;1;2;0;0;0;2;1;1;0..1;1;0..1;1;1;1;1;1;1;1;1;1;1;2;1;
22;OK;1;1;1;2;2;1;1;2;2;2;1;1;2;2;2;2;2;2;0;0;1;1;0;0;0;2;0;0;0;0;0;1;0;1;1;1;1;1;1;2;0;0;1;1;1;1;0..1;1;0..1;1;1;1;1;1;1;1;1;1;1;2;1;
23;OK;1;1;1;2;2;1;1;2;2;2;1;1;2;2;2;2;2;2;0;0;1;1;0;0;0;2;0;0;0;0;0;1;0;1;1;1;1;1;1;2;0;0;1;2;1;1;0..1;1;0..1;1;1;1;1;1;1;1;1;1;1;2;1;
24;OK;1;1;1;2;2;1;1;2;2;2;1;1;2;2;2;2;2;2;0;0;1;1;0;0;0;2;0;0;0;0;0;1;0;1;1;1;1;1;1;2;0;0;2;2;1;1;0..1;1;0..1;1;1;1;1;1;1;1;1;1;1;2;1;
25;OK;1;1;1;2;2;1;1;2;2;2;1;1;2;2;2;2;2;2;0;0;1;1;0;0;0;2;0;0;0;0;0;1;0;1;1;1;1;1;2;2;0;0;0;1;1;1;0..1;1;0..1;1;1;1;1;1;1;1;1;1;1;2;1;
26;OK;1;1;1;2;2;1;1;2;2;2;1;1;2;2;2;2;2;2;0;0;1;1;0;0;0;2;0;0;0;0;0;1;0;1;1;1;1;1;2;2;0;0;0;2;1;1;0..1;1;0..1;1;1;1;1;1;1;1;1;1;1;2;1;
27;OK;1;1;1;2;2;1;1;2;2;2;1;1;2;2;2;2;2;2;0;0;1;1;0;0;0;2;0;0;0;0;0;1;0;1;1;1;1;1;2;2;0;0;1;1;1;1;0..1;1;0..1;1;1;1;1;1;1;1;1;1;1;2;1;
28;OK;1;1;1;2;2;1;1;2;2;2;1;1;2;2;2;2;2;2;0;0;1;1;0;0;0;2;0;0;0;0;0;1;0;1;1;1;1;1;2;2;0;0;1;2;1;1;0..1;1;0..1;1;1;1;1;1;1;1;1;1;1;2;1;
29;OK;1;1;1;2;2;1;1;2;2;2;1;1;2;2;2;2;2;2;0;0;1;1;0;0;0;2;0;0;0;0;0;1;0;1;1;1;1;1;2;2;0;0;2;2;1;1;0..1;1;0..1;1;1;1;1;1;1;1;1;1;1;2;1;
30;OK;1;1;1;2;2;1;1;2;2;2;1;1;2;2;2;2;2;2;0;0;1;1;0;1;0;2;0;0;0;0;0;0;0;1;1;1;1;1;0;2;0;0;0;1;1;1;0..1;1;0..1;1;1;1;1;1;1;1;1;1;1;2;1;
31;OK;1;1;1;2;2;1;1;2;2;2;1;1;2;2;2;2;2;2;0;0;1;1;0;1;0;2;0;0;0;0;0;0;0;1;1;1;1;1;0;2;0;0;0;2;1;1;0..1;1;0..1;1;1;1;1;1;1;1;1;1;1;2;1;
32;OK;1;1;1;2;2;1;1;2;2;2;1;1;2;2;2;2;2;2;0;0;1;1;0;1;0;2;0;0;0;0;0;0;0;1;1;1;1;1;0;2;0;0;1;1;1;1;0..1;1;0..1;1;1;1;1;1;1;1;1;1;1;2;1;
33;OK;1;1;1;2;2;1;1;2;2;2;1;1;2;2;2;2;2;2;0;0;1;1;0;1;0;2;0;0;0;0;0;0;0;1;1;1;1;1;0;2;0;0;1;2;1;1;0..1;1;0..1;1;1;1;1;1;1;1;1;1;1;2;1;
34;OK;1;1;1;2;2;1;1;2;2;2;1;1;2;2;2;2;2;2;0;0;1;1;0;1;0;2;0;0;0;0;0;0;0;1;1;1;1;1;0;2;0;0;2;2;1;1;0..1;1;0..1;1;1;1;1;1;1;1;1;1;1;2;1;
35;OK;1;1;1;2;2;1;1;2;2;2;1;1;2;2;2;2;2;2;0;0;1;1;0;1;0;2;0;0;0;0;0;0;0;1;1;1;1;1;1;2;0;0;0;1;1;1;0..1;1;0..1;1;1;1;1;1;1;1;1;1;1;2;1;
36;OK;1;1;1;2;2;1;1;2;2;2;1;1;2;2;2;2;2;2;0;0;1;1;0;1;0;2;0;0;0;0;0;0;0;1;1;1;1;1;1;2;0;0;0;2;1;1;0..1;1;0..1;1;1;1;1;1;1;1;1;1;1;2;1;
37;OK;1;1;1;2;2;1;1;2;2;2;1;1;2;2;2;2;2;2;0;0;1;1;0;1;0;2;0;0;0;0;0;0;0;1;1;1;1;1;1;2;0;0;1;1;1;1;0..1;1;0..1;1;1;1;1;1;1;1;1;1;1;2;1;
38;OK;1;1;1;2;2;1;1;2;2;2;1;1;2;2;2;2;2;2;0;0;1;1;0;1;0;2;0;0;0;0;0;0;0;1;1;1;1;1;1;2;0;0;1;2;1;1;0..1;1;0..1;1;1;1;1;1;1;1;1;1;1;2;1;
39;OK;1;1;1;2;2;1;1;2;2;2;1;1;2;2;2;2;2;2;0;0;1;1;0;1;0;2;0;0;0;0;0;0;0;1;1;1;1;1;1;2;0;0;2;2;1;1;0..1;1;0..1;1;1;1;1;1;1;1;1;1;1;2;1;
40;OK;1;1;1;2;2;1;1;2;2;2;1;1;2;2;2;2;2;2;0;0;1;1;0;1;0;2;0;0;0;0;0;0;0;1;1;1;1;1;2;2;0;0;0;1;1;1;0..1;1;0..1;1;1;1;1;1;1;1;1;1;1;2;1;
41;OK;1;1;1;2;2;1;1;2;2;2;1;1;2;2;2;2;2;2;0;0;1;1;0;1;0;2;0;0;0;0;0;0;0;1;1;1;1;1;2;2;0;0;0;2;1;1;0..1;1;0..1;1;1;1;1;1;1;1;1;1;1;2;1;
42;OK;1;1;1;2;2;1;1;2;2;2;1;1;2;2;2;2;2;2;0;0;1;1;0;1;0;2;0;0;0;0;0;0;0;1;1;1;1;1;2;2;0;0;1;1;1;1;0..1;1;0..1;1;1;1;1;1;1;1;1;1;1;2;1;
43;OK;1;1;1;2;2;1;1;2;2;2;1;1;2;2;2;2;2;2;0;0;1;1;0;1;0;2;0;0;0;0;0;0;0;1;1;1;1;1;2;2;0;0;1;2;1;1;0..1;1;0..1;1;1;1;1;1;1;1;1;1;1;2;1;
44;OK;1;1;1;2;2;1;1;2;2;2;1;1;2;2;2;2;2;2;0;0;1;1;0;1;0;2;0;0;0;0;0;0;0;1;1;1;1;1;2;2;0;0;2;2;1;1;0..1;1;0..1;1;1;1;1;1;1;1;1;1;1;2;1;
45;OK;1;1;1;2;2;1;1;2;2;2;1;1;2;2;2;2;2;2;0;0;1;1;0;1;0;2;0;0;0;0;0;1;0;1;1;1;1;1;0;2;0;0;0;1;1;1;0..1;1;0..1;1;1;1;1;1;1;1;1;1;1;2;1;
46;OK;1;1;1;2;2;1;1;2;2;2;1;1;2;2;2;2;2;2;0;0;1;1;0;1;0;2;0;0;0;0;0;1;0;1;1;1;1;1;0;2;0;0;0;2;1;1;0..1;1;0..1;1;1;1;1;1;1;1;1;1;1;2;1;
47;OK;1;1;1;2;2;1;1;2;2;2;1;1;2;2;2;2;2;2;0;0;1;1;0;1;0;2;0;0;0;0;0;1;0;1;1;1;1;1;0;2;0;0;1;1;1;1;0..1;1;0..1;1;1;1;1;1;1;1;1;1;1;2;1;
48;OK;1;1;1;2;2;1;1;2;2;2;1;1;2;2;2;2;2;2;0;0;1;1;0;1;0;2;0;0;0;0;0;1;0;1;1;1;1;1;0;2;0;0;1;2;1;1;0..1;1;0..1;1;1;1;1;1;1;1;1;1;1;2;1;
49;OK;1;1;1;2;2;1;1;2;2;2;1;1;2;2;2;2;2;2;0;0;1;1;0;1;0;2;0;0;0;0;0;1;0;1;1;1;1;1;0;2;0;0;2;2;1;1;0..1;1;0..1;1;1;1;1;1;1;1;1;1;1;2;1;
50;OK;1;1;1;2;2;1;1;2;2;2;1;1;2;2;2;2;2;2;0;0;1;1;0;1;0;2;0;0;0;0;0;1;0;1;1;1;1;1;1;2;0;0;0;1;1;1;0..1;1;0..1;1;1;1;1;1;1;1;1;1;1;2;1;
51;OK;1;1;1;2;2;1;1;2;2;2;1;1;2;2;2;2;2;2;0;0;1;1;0;1;0;2;0;0;0;0;0;1;0;1;1;1;1;1;1;2;0;0;0;2;1;1;0..1;1;0..1;1;1;1;1;1;1;1;1;1;1;2;1;
52;OK;1;1;1;2;2;1;1;2;2;2;1;1;2;2;2;2;2;2;0;0;1;1;0;1;0;2;0;0;0;0;0;1;0;1;1;1;1;1;1;2;0;0;1;1;1;1;0..1;1;0..1;1;1;1;1;1;1;1;1;1;1;2;1;
53;OK;1;1;1;2;2;1;1;2;2;2;1;1;2;2;2;2;2;2;0;0;1;1;0;1;0;2;0;0;0;0;0;1;0;1;1;1;1;1;1;2;0;0;1;2;1;1;0..1;1;0..1;1;1;1;1;1;1;1;1;1;1;2;1;
54;OK;1;1;1;2;2;1;1;2;2;2;1;1;2;2;2;2;2;2;0;0;1;1;0;1;0;2;0;0;0;0;0;1;0;1;1;1;1;1;1;2;0;0;2;2;1;1;0..1;1;0..1;1;1;1;1;1;1;1;1;1;1;2;1;
55;OK;1;1;1;2;2;1;1;2;2;2;1;1;2;2;2;2;2;2;0;0;1;1;0;1;0;2;0;0;0;0;0;1;0;1;1;1;1;1;2;2;0;0;0;1;1;1;0..1;1;0..1;1;1;1;1;1;1;1;1;1;1;2;1;
56;OK;1;1;1;2;2;1;1;2;2;2;1;1;2;2;2;2;2;2;0;0;1;1;0;1;0;2;0;0;0;0;0;1;0;1;1;1;1;1;2;2;0;0;0;2;1;1;0..1;1;0..1;1;1;1;1;1;1;1;1;1;1;2;1;
57;OK;1;1;1;2;2;1;1;2;2;2;1;1;2;2;2;2;2;2;0;0;1;1;0;1;0;2;0;0;0;0;0;1;0;1;1;1;1;1;2;2;0;0;1;1;1;1;0..1;1;0..1;1;1;1;1;1;1;1;1;1;1;2;1;
58;OK;1;1;1;2;2;1;1;2;2;2;1;1;2;2;2;2;2;2;0;0;1;1;0;1;0;2;0;0;0;0;0;1;0;1;1;1;1;1;2;2;0;0;1;2;1;1;0..1;1;0..1;1;1;1;1;1;1;1;1;1;1;2;1;
59;OK;1;1;1;2;2;1;1;2;2;2;1;1;2;2;2;2;2;2;0;0;1;1;0;1;0;2;0;0;0;0;0;1;0;1;1;1;1;1;2;2;0;0;2;2;1;1;0..1;1;0..1;1;1;1;1;1;1;1;1;1;1;2;1;
60;OK;1;1;1;2;2;1;1;2;2;2;1;1;2;2;2;2;2;2;0;0;1;1;0;2;0;2;0;0;0;0;0;0;0;1;1;1;1;1;0;2;0;0;0;1;1;1;0..1;1;0..1;1;1;1;1;1;1;1;1;1;1;2;1;
61;OK;1;1;1;2;2;1;1;2;2;2;1;1;2;2;2;2;2;2;0;0;1;1;0;2;0;2;0;0;0;0;0;0;0;1;1;1;1;1;0;2;0;0;0;2;1;1;0..1;1;0..1;1;1;1;1;1;1;1;1;1;1;2;1;
62;OK;1;1;1;2;2;1;1;2;2;2;1;1;2;2;2;2;2;2;0;0;1;1;0;2;0;2;0;0;0;0;0;0;0;1;1;1;1;1;0;2;0;0;1;1;1;1;0..1;1;0..1;1;1;1;1;1;1;1;1;1;1;2;1;
63;OK;1;1;1;2;2;1;1;2;2;2;1;1;2;2;2;2;2;2;0;0;1;1;0;2;0;2;0;0;0;0;0;0;0;1;1;1;1;1;0;2;0;0;1;2;1;1;0..1;1;0..1;1;1;1;1;1;1;1;1;1;1;2;1;
64;OK;1;1;1;2;2;1;1;2;2;2;1;1;2;2;2;2;2;2;0;0;1;1;0;2;0;2;0;0;0;0;0;0;0;1;1;1;1;1;0;2;0;0;2;2;1;1;0..1;1;0..1;1;1;1;1;1;1;1;1;1;1;2;1;
65;OK;1;1;1;2;2;1;1;2;2;2;1;1;2;2;2;2;2;2;0;0;1;1;0;2;0;2;0;0;0;0;0;0;0;1;1;1;1;1;1;2;0;0;0;1;1;1;0..1;1;0..1;1;1;1;1;1;1;1;1;1;1;2;1;
66;OK;1;1;1;2;2;1;1;2;2;2;1;1;2;2;2;2;2;2;0;0;1;1;0;2;0;2;0;0;0;0;0;0;0;1;1;1;1;1;1;2;0;0;0;2;1;1;0..1;1;0..1;1;1;1;1;1;1;1;1;1;1;2;1;
67;OK;1;1;1;2;2;1;1;2;2;2;1;1;2;2;2;2;2;2;0;0;1;1;0;2;0;2;0;0;0;0;0;0;0;1;1;1;1;1;1;2;0;0;1;1;1;1;0..1;1;0..1;1;1;1;1;1;1;1;1;1;1;2;1;
68;OK;1;1;1;2;2;1;1;2;2;2;1;1;2;2;2;2;2;2;0;0;1;1;0;2;0;2;0;0;0;0;0;0;0;1;1;1;1;1;1;2;0;0;1;2;1;1;0..1;1;0..1;1;1;1;1;1;1;1;1;1;1;2;1;
69;OK;1;1;1;2;2;1;1;2;2;2;1;1;2;2;2;2;2;2;0;0;1;1;0;2;0;2;0;0;0;0;0;0;0;1;1;1;1;1;1;2;0;0;2;2;1;1;0..1;1;0..1;1;1;1;1;1;1;1;1;1;1;2;1;
70;OK;1;1;1;2;2;1;1;2;2;2;1;1;2;2;2;2;2;2;0;0;1;1;0;2;0;2;0;0;0;0;0;0;0;1;1;1;1;1;2;2;0;0;0;1;1;1;0..1;1;0..1;1;1;1;1;1;1;1;1;1;1;2;1;
71;OK;1;1;1;2;2;1;1;2;2;2;1;1;2;2;2;2;2;2;0;0;1;1;0;2;0;2;0;0;0;0;0;0;0;1;1;1;1;1;2;2;0;0;0;2;1;1;0..1;1;0..1;1;1;1;1;1;1;1;1;1;1;2;1;
72;OK;1;1;1;2;2;1;1;2;2;2;1;1;2;2;2;2;2;2;0;0;1;1;0;2;0;2;0;0;0;0;0;0;0;1;1;1;1;1;2;2;0;0;1;1;1;1;0..1;1;0..1;1;1;1;1;1;1;1;1;1;1;2;1;
73;OK;1;1;1;2;2;1;1;2;2;2;1;1;2;2;2;2;2;2;0;0;1;1;0;2;0;2;0;0;0;0;0;0;0;1;1;1;1;1;2;2;0;0;1;2;1;1;0..1;1;0..1;1;1;1;1;1;1;1;1;1;1;2;1;
74;OK;1;1;1;2;2;1;1;2;2;2;1;1;2;2;2;2;2;2;0;0;1;1;0;2;0;2;0;0;0;0;0;0;0;1;1;1;1;1;2;2;0;0;2;2;1;1;0..1;1;0..1;1;1;1;1;1;1;1;1;1;1;2;1;
75;OK;1;1;1;2;2;1;1;2;2;2;1;1;2;2;2;2;2;2;0;0;1;1;0;2;0;2;0;0;0;0;0;1;0;1;1;1;1;1;0;2;0;0;0;1;1;1;0..1;1;0..1;1;1;1;1;1;1;1;1;1;1;2;1;
76;OK;1;1;1;2;2;1;1;2;2;2;1;1;2;2;2;2;2;2;0;0;1;1;0;2;0;2;0;0;0;0;0;1;0;1;1;1;1;1;0;2;0;0;0;2;1;1;0..1;1;0..1;1;1;1;1;1;1;1;1;1;1;2;1;
77;OK;1;1;1;2;2;1;1;2;2;2;1;1;2;2;2;2;2;2;0;0;1;1;0;2;0;2;0;0;0;0;0;1;0;1;1;1;1;1;0;2;0;0;1;1;1;1;0..1;1;0..1;1;1;1;1;1;1;1;1;1;1;2;1;
78;OK;1;1;1;2;2;1;1;2;2;2;1;1;2;2;2;2;2;2;0;0;1;1;0;2;0;2;0;0;0;0;0;1;0;1;1;1;1;1;0;2;0;0;1;2;1;1;0..1;1;0..1;1;1;1;1;1;1;1;1;1;1;2;1;
79;OK;1;1;1;2;2;1;1;2;2;2;1;1;2;2;2;2;2;2;0;0;1;1;0;2;0;2;0;0;0;0;0;1;0;1;1;1;1;1;0;2;0;0;2;2;1;1;0..1;1;0..1;1;1;1;1;1;1;1;1;1;1;2;1;
80;OK;1;1;1;2;2;1;1;2;2;2;1;1;2;2;2;2;2;2;0;0;1;1;0;2;0;2;0;0;0;0;0;1;0;1;1;1;1;1;1;2;0;0;0;1;1;1;0..1;1;0..1;1;1;1;1;1;1;1;1;1;1;2;1;
81;OK;1;1;1;2;2;1;1;2;2;2;1;1;2;2;2;2;2;2;0;0;1;1;0;2;0;2;0;0;0;0;0;1;0;1;1;1;1;1;1;2;0;0;0;2;1;1;0..1;1;0..1;1;1;1;1;1;1;1;1;1;1;2;1;
82;OK;1;1;1;2;2;1;1;2;2;2;1;1;2;2;2;2;2;2;0;0;1;1;0;2;0;2;0;0;0;0;0;1;0;1;1;1;1;1;1;2;0;0;1;1;1;1;0..1;1;0..1;1;1;1;1;1;1;1;1;1;1;2;1;
83;OK;1;1;1;2;2;1;1;2;2;2;1;1;2;2;2;2;2;2;0;0;1;1;0;2;0;2;0;0;0;0;0;1;0;1;1;1;1;1;1;2;0;0;1;2;1;1;0..1;1;0..1;1;1;1;1;1;1;1;1;1;1;2;1;
84;OK;1;1;1;2;2;1;1;2;2;2;1;1;2;2;2;2;2;2;0;0;1;1;0;2;0;2;0;0;0;0;0;1;0;1;1;1;1;1;1;2;0;0;2;2;1;1;0..1;1;0..1;1;1;1;1;1;1;1;1;1;1;2;1;
85;OK;1;1;1;2;2;1;1;2;2;2;1;1;2;2;2;2;2;2;0;0;1;1;0;2;0;2;0;0;0;0;0;1;0;1;1;1;1;1;2;2;0;0;0;1;1;1;0..1;1;0..1;1;1;1;1;1;1;1;1;1;1;2;1;
86;OK;1;1;1;2;2;1;1;2;2;2;1;1;2;2;2;2;2;2;0;0;1;1;0;2;0;2;0;0;0;0;0;1;0;1;1;1;1;1;2;2;0;0;0;2;1;1;0..1;1;0..1;1;1;1;1;1;1;1;1;1;1;2;1;
87;OK;1;1;1;2;2;1;1;2;2;2;1;1;2;2;2;2;2;2;0;0;1;1;0;2;0;2;0;0;0;0;0;1;0;1;1;1;1;1;2;2;0;0;1;1;1;1;0..1;1;0..1;1;1;1;1;1;1;1;1;1;1;2;1;
88;OK;1;1;1;2;2;1;1;2;2;2;1;1;2;2;2;2;2;2;0;0;1;1;0;2;0;2;0;0;0;0;0;1;0;1;1;1;1;1;2;2;0;0;1;2;1;1;0..1;1;0..1;1;1;1;1;1;1;1;1;1;1;2;1;
89;OK;1;1;1;2;2;1;1;2;2;2;1;1;2;2;2;2;2;2;0;0;1;1;0;2;0;2;0;0;0;0;0;1;0;1;1;1;1;1;2;2;0;0;2;2;1;1;0..1;1;0..1;1;1;1;1;1;1;1;1;1;1;2;1;
